…
`provider` supports query modifiers for more precise filtering. These
are implemented as Modifier S7 classes

``` r

library(provider)
```

#### 🏢 Facility Affiliations

``` r
affiliations(facility_ccn = 110122)
✔ affiliations returned 397 results.
# A tibble: 397 × 9
   first  last  middle suffix    npi pac   facility_type facility_ccn parent_ccn
 * <chr>  <chr> <chr>  <chr>   <int> <chr> <chr>         <chr>        <chr>     
 1 JEREMY COLY… STEPH… <NA>   1.00e9 1254… Hospital      110122       <NA>      
 2 COLE   BURG… <NA>   <NA>   1.00e9 1850… Hospital      110122       <NA>      
 3 VIVEK  YADAV <NA>   <NA>   1.00e9 2365… Hospital      110122       <NA>      
 4 FELIX  VALD… G      <NA>   1.02e9 2860… Hospital      110122       <NA>      
 5 STEPH… FOX   G      <NA>   1.02e9 5698… Hospital      110122       <NA>      
 6 ERIC   STIE… CHRIS… <NA>   1.02e9 5799… Hospital      110122       <NA>      
 7 ROBERT BENN… D      <NA>   1.02e9 1759… Hospital      110122       <NA>      
 8 NATHAN ROBE… KELLY  <NA>   1.02e9 6507… Hospital      110122       <NA>      
 9 WILLI… MULL… THOMAS JR.    1.02e9 8527… Hospital      110122       <NA>      
10 RACHEL ARMS… KATHL… <NA>   1.03e9 7113… Hospital      110122       <NA>      
# ℹ 387 more rows
```

#### 🤝 Reassignment of Benefits

``` r
reassignments(
  org_name = starts("SGMC"),
  state = "GA")
✔ reassignments returned 210 results.
# A tibble: 210 × 14
   first   last  state specialty employers    npi pac   enid  org_name employees
 * <chr>   <chr> <chr> <chr>         <int>  <int> <chr> <chr> <chr>        <int>
 1 Carter  Adams GA    Nurse Pr…         2 1.50e9 8628… I202… Sgmc Af…        49
 2 Jessica Alfe… GA    Nurse Pr…         9 1.24e9 7416… I201… Sgmc Af…        49
 3 Ginger  Ambr… GA    Nurse Pr…         2 1.88e9 3779… I202… Sgmc Af…        49
 4 Grant   Bark… GA    Emergenc…         2 1.48e9 4082… I202… Sgmc Af…        49
 5 Stacy   Beck  GA    Nurse Pr…         3 1.73e9 4385… I201… Sgmc Af…        49
 6 Lila    Benn… GA    Nurse Pr…         3 1.93e9 5991… I201… Sgmc Af…        49
 7 Margar… Cart… GA    Nurse Pr…         8 1.24e9 6507… I201… Sgmc Af…        49
 8 Clayton Char… GA    Hospital…         4 1.08e9 6204… I201… Sgmc Af…        49
 9 Michel… Char… GA    Nurse Pr…         3 1.44e9 4183… I201… Sgmc Af…        49
10 Hunter  Clan… GA    Nurse Pr…         4 1.45e9 9032… I202… Sgmc Af…        49
# ℹ 200 more rows
# ℹ 4 more variables: org_pac <chr>, org_enid <chr>, org_state <chr>,
#   rec_type <chr>
```

#### 👎 Revoked Medicare Providers

``` r
revocations(state = "GA")
✔ revocations returned 213 results.
# A tibble: 213 × 12
   org_name first    middle last       enid     npi multi state prov_desc reason
 * <chr>    <chr>    <chr>  <chr>      <chr>  <int> <int> <chr> <chr>     <chr> 
 1 <NA>     WALLACE  S      ANDERSON   I200… 1.88e9     0 GA    PRACTITI… 424.5…
 2 <NA>     LEO      G      FRANGIPANE I200… 1.07e9     0 GA    PRACTITI… 424.5…
 3 <NA>     ANTHONY  D      MILLS      I200… 1.27e9     0 GA    PRACTITI… 424.5…
 4 <NA>     JEFFREY  M.     GALLUPS    I200… 1.85e9     0 GA    PRACTITI… 424.5…
 5 <NA>     CURTIS   <NA>   CHEEKS     I200… 1.53e9     0 GA    PRACTITI… 424.5…
 6 <NA>     ZAVIER   C      ASH        I200… 1.77e9     0 GA    PRACTITI… 424.5…
 7 <NA>     SHAWN    E      TYWON      I200… 1.68e9     0 GA    PRACTITI… 424.5…
 8 <NA>     ANAND    P      LALAJI     I200… 1.65e9     0 GA    PRACTITI… 424.5…
 9 <NA>     TIFFANNI D      FORBES     I200… 1.21e9     0 GA    PRACTITI… 424.5…
10 <NA>     STEPHEN  T      BASHUK     I200… 1.95e9     0 GA    PRACTITI… 424.5…
# ℹ 203 more rows
# ℹ 2 more variables: start_date <date>, end_date <date>
```

#### 🪪 Clinician Demographics

``` r
clinicians(
  org_name = starts("SGMC"),
  state = "GA")
✔ clinicians returned 167 results.
# A tibble: 167 × 20
   first    middle last    suffix gender cred  school grad_year specialty    npi
 * <chr>    <chr>  <chr>   <chr>  <chr>  <chr> <chr>      <int> <chr>      <int>
 1 MANDY    <NA>   LUCAS   <NA>   F      <NA>  MEHAR…      2011 FAMILY P… 1.35e9
 2 BHUMIBEN KUSHAL PATEL   <NA>   F      NP    OTHER       2018 NURSE PR… 1.47e9
 3 WILLIAM  <NA>   NASH    <NA>   M      MD    MEDIC…      1992 FAMILY P… 1.24e9
 4 VERA     C      GARCIA  <NA>   M      MD    OTHER       1991 FAMILY P… 1.15e9
 5 ALBERTO  E      GARCIA  <NA>   M      MD    OTHER       1996 FAMILY P… 1.52e9
 6 JULENE   D      SMITH   <NA>   F      NP    OTHER       2015 NURSE PR… 1.08e9
 7 KASSI    LAITEN COPELA… <NA>   F      <NA>  OTHER       2025 NURSE PR… 1.16e9
 8 JYNGER   MORRIS HULING  <NA>   F      <NA>  OTHER       2003 MENTAL H… 1.35e9
 9 WENDY    <NA>   VANDEM… <NA>   F      MD    NORTH…      2000 PSYCHIAT… 1.39e9
10 MYRA     <NA>   JORDAN  <NA>   F      <NA>  OTHER       2004 MARRIAGE… 1.46e9
# ℹ 157 more rows
# ℹ 10 more variables: pac <chr>, enid <chr>, org_name <chr>, org_pac <chr>,
#   org_mem <int>, city <chr>, state <chr>, zip <chr>, org_add <chr>,
#   specialty <chr>
```
…
##### 🧾 Order & Referral Eligibility

``` r
order_refer(
  first = contains("LESS"),
  ptb = TRUE,
  hospice = FALSE,
  hha = FALSE)
✔ order_refer returned 38 results.
# A tibble: 38 × 8
   first       last                  npi   ptb   dme   hha   pmd hospice
 * <chr>       <chr>               <int> <int> <int> <int> <int>   <int>
 1 ALESSANDRA  ALTOVINO       1518559350     1     1     0     0       0
 2 VELESSAUNIA BRIDGES-WILSON 1649501503     1     1     0     0       0
 3 ALESSANDRA  CALHOUN        1730412420     1     1     0     0       0
 4 ALESSANDRA  CARUSO         1790206852     1     1     0     0       0
 5 ALESSANDRA  CARVALHO       1851178206     1     1     0     0       0
 6 BLESSY      CHACKO         1659024842     1     1     0     0       0
 7 BLESSING    CHINEDUOBI     1205255106     1     1     0     0       0
 8 ALESSANDRA  CITRO          1639875172     1     1     0     0       0
 9 MELESSA     DILLINGHAM     1992341721     1     1     0     0       0
10 ARLESS      DODSON         1346520582     1     1     0     0       0
# ℹ 28 more rows
```
…
##### 📆 Pending Enrollments

``` r
pending(
  first = contains("A"),
  last = ends("E"))
✔ pending returned 533 results.
• Physician     : 169
• Non-Physician : 364
# A tibble: 533 × 4
   prov_type first     last                 npi
 * <chr>     <chr>     <chr>              <int>
 1 Physician BABATUNDE ADESEYE       1558204693
 2 Physician MELISSA   ALDRIDGE      1073132429
 3 Physician MIA       ALDRIDGE      1437890761
 4 Physician HARLEY    ARRAUT-WHITE  1548906621
 5 Physician JUAN      ARROYAVE      1104766104
 6 Physician MARIAM    ATOBILOYE     1992405476
 7 Physician ADESEYE   AWE           1942796479
 8 Physician IVANA     BALDIE        1720929433
 9 Physician FRANCISCO BARAJAS DUQUE 1710794219
10 Physician FRANTZ    BAZILE        1285826180
# ℹ 523 more rows
```
…
##### 🧪 CLIA Laboratories

``` r
clia(
  facility_name = starts("SGMC"),
  state = "GA")
✔ clia returned 32 results.
# A tibble: 32 × 30
   fac_name  fac_ccn clia_ccn xrf_ccn shr_ccn acr_org multi_ind hosp_ind non_ind
 * <chr>     <chr>   <chr>    <chr>   <chr>   <chr>       <int>    <int>   <int>
 1 SGMC HEA… 11D002… 110122   <NA>    <NA>    JCAHO           0        0       0
 2 SGMC- SM… 11D002… 110037   <NA>    <NA>    CAP             0        0       0
 3 SGMC WOM… 11D026… <NA>     <NA>    <NA>    <NA>            0        0       0
 4 SGMC VAL… 11D026… 2585892… <NA>    <NA>    <NA>            0        0       0
 5 SGMC- LA… 11D026… 110097   <NA>    <NA>    CAP             1        1       0
 6 SGMC-BER… 11D026… 11-0112  <NA>    <NA>    CAP             0        0       0
 7 SGMC PRI… 11D069… 2568644… <NA>    <NA>    <NA>            0        0       0
 8 SGMC HEA… 11D091… <NA>     <NA>    <NA>    <NA>            0        0       0
 9 SGMC PRI… 11D093… <NA>     <NA>    <NA>    <NA>            0        0       0
10 SGMC FAM… 11D094… <NA>     <NA>    <NA>    <NA>            0        0       0
# ℹ 22 more rows
# ℹ 21 more variables: tmp_ind <int>, poc_ind <int>, elig_ind <int>,
#   term_type <chr>, cert_type <chr>, fac_type <chr>, own_type <chr>,
#   act_type <chr>, orig_date <date>, cert_date <date>, eff_date <date>,
#   term_date <date>, acr_date <date>, chow_cnt <int>, alab_cnt <int>,
#   site_cnt <int>, compliant <chr>, city <chr>, state <chr>, zip <chr>,
#   address <chr>
```

##### 🔎 Hospital Transparency Enforcement

``` r
transparency(
  action = "closure", 
  state = "WA")
✔ transparency returned 39 results.
# A tibble: 39 × 7
    case name                             address city  state action action_date
 * <int> <chr>                            <chr>   <chr> <chr> <chr>  <date>     
 1  1291 Arbor Health Morton Hospital     521 Ad… Mort… WA    Closu… 2023-04-13 
 2  2248 Arbor Health Morton Hospital     521 Ad… Mort… WA    Closu… 2024-05-30 
 3  2849 Astria Toppenish Hospital        502 W … Topp… WA    Closu… 2024-12-30 
 4  6638 Cascade Medical Center           817 Co… Leav… WA    Closu… 2025-12-18 
 5  4578 CHI Franciscan Rehabilitation H… 815 S … Taco… WA    Closu… 2025-08-25 
 6  6707 Columbia Basin Hospital          200 Na… Ephr… WA    Closu… 2026-01-12 
 7  6717 Coulee Medical Center            411 Fo… Gran… WA    Closu… 2025-12-30 
 8  6731 Dayton General Hospital          1012 S… Dayt… WA    Closu… 2025-12-01 
 9   866 East Adams Rural Healthcare      903 S … Ritz… WA    Closu… 2024-02-29 
10  6191 EvergreenHealth Kirkland         12040 … Kirk… WA    Closu… 2025-12-19 
# ℹ 29 more rows
```
…
