…
#### Query Modifiers

`provider` supports query modifiers for more precise filtering. These
are implemented as Modifier S7 classes

``` r
library(provider)
```

#### :office: Facility Affiliations

``` r
affiliations(last = "Bruce")
✔ affiliations returned 247 results.
# A tibble: 247 × 8
   first    last  middle        npi pac        prov_type prov_ccn parent_ccn
   <chr>    <chr> <chr>       <int> <chr>      <chr>     <chr>    <chr>     
 1 SIDNEY   BRUCE D      1003044520 2466795406 Hospital  150173   <NA>      
 2 SIDNEY   BRUCE D      1003044520 2466795406 Hospital  151312   <NA>      
 3 SIDNEY   BRUCE D      1003044520 2466795406 Hospital  151316   <NA>      
 4 MARGARET BRUCE E      1003444332 0840619235 Hospital  500016   <NA>      
 5 LAUREN   BRUCE C      1003863192 4385530377 Hospital  390331   <NA>      
 6 TIMOTHY  BRUCE <NA>   1013228907 7315239902 Hospital  520008   <NA>      
 7 SARAH    BRUCE <NA>   1023571882 8224498597 Hospital  390111   <NA>      
 8 DAVID    BRUCE S      1043213069 6406929694 Hospital  190036   <NA>      
 9 DAVID    BRUCE <NA>   1043634017 0840422127 Hospital  110107   <NA>      
10 CARLEIGH BRUCE NICOLE 1043772858 8729403746 Hospital  520177   <NA>      
# ℹ 237 more rows
```

#### :handshake: Reassignment of Benefits

``` r
reassignments(
  employers = greater(40), 
  state = "GA"
)
✔ reassignments returned 86 results.
# A tibble: 86 × 13
   first   last  state specialty employers    npi pac   enid  org_name employees
   <chr>   <chr> <chr> <chr>         <int>  <int> <chr> <chr> <chr>        <int>
 1 Naushe… Nave… GA    Diagnost…        42 1.51e9 8022… I201… Advance…         1
 2 Dean    Moes… GA    Diagnost…        44 1.51e9 6709… I200… Amboy M…         1
 3 Naushe… Nave… GA    Diagnost…        42 1.51e9 8022… I201… Atlanti…        40
 4 Dean    Moes… GA    Diagnost…        44 1.51e9 6709… I200… Baxter …         1
 5 Naushe… Nave… GA    Diagnost…        42 1.51e9 8022… I201… Brooks …        48
 6 Dean    Moes… GA    Diagnost…        44 1.51e9 6709… I200… Butler …         4
 7 Naushe… Nave… GA    Diagnost…        42 1.51e9 8022… I201… Central…        34
 8 Dean    Moes… GA    Diagnost…        44 1.51e9 6709… I200… Charles…         5
 9 Dean    Moes… GA    Diagnost…        44 1.51e9 6709… I200… Coastal…        51
10 Naushe… Nave… GA    Diagnost…        42 1.51e9 8022… I201… Concord…         4
# ℹ 76 more rows
# ℹ 3 more variables: org_pac <chr>, org_enid <chr>, org_state <chr>
```

#### :-1: Revoked Medicare Providers

``` r
revocations(
  state = "NY", 
  org_name = not_blank()
)
✔ revocations returned 350 results.
# A tibble: 350 × 12
   org_name        first middle last  enid      npi multi state prov_desc reason
   <chr>           <chr> <chr>  <chr> <chr>   <int> <int> <chr> <chr>     <chr> 
 1 CARDIO VASC IM… <NA>  <NA>   <NA>  O200… NA          0 NY    PART B S… 424.5…
 2 BROOKLYN NUCLE… <NA>  <NA>   <NA>  O200…  1.52e9     1 NY    PART B S… 424.5…
 3 SO NASSAU CARD… <NA>  <NA>   <NA>  O200… NA          0 NY    PART B S… 424.5…
 4 MEADOWS NUCLEA… <NA>  <NA>   <NA>  O200… NA          0 NY    PART B S… 424.5…
 5 STONY BROOK RA… <NA>  <NA>   <NA>  O200…  1.30e9     0 NY    PART B S… 424.5…
 6 FOREST HILLS N… <NA>  <NA>   <NA>  O200…  1.34e9     0 NY    PART B S… 424.5…
 7 MEADOWS NUCLEA… <NA>  <NA>   <NA>  O200…  1.96e9     0 NY    PART B S… 424.5…
 8 GRAMERCY CARDI… <NA>  <NA>   <NA>  O200…  1.34e9     1 NY    PART B S… 424.5…
 9 MEDICAL OFFICE… <NA>  <NA>   <NA>  O200…  1.13e9     0 NY    PART B S… 424.5…
10 CHOICE SPINE J… <NA>  <NA>   <NA>  O200…  1.11e9     0 NY    PART B S… 424.5…
# ℹ 340 more rows
# ℹ 2 more variables: start_date <date>, end_date <date>
```

#### :identification_card: Clinician Demographics

``` r
clinicians(
  state = "GA", 
  school = not("OTHER"), 
  grad_year = 2025
)
✔ clinicians returned 192 results.
# A tibble: 192 × 18
   first middle last  gender cred  school grad_year specialty    npi pac   enid 
   <chr> <chr>  <chr> <chr>  <chr> <chr>      <int> <chr>      <int> <chr> <chr>
 1 MADI… MANN   HANC… F      PA    UNIVE…      2025 PHYSICIA… 1.00e9 5698… I202…
 2 BRIT… MARIE  STEN… F      <NA>  MERCE…      2025 PHYSICIA… 1.04e9 7214… I202…
 3 FORE… STUART HARD… M      <NA>  EDWAR…      2025 ANESTHES… 1.27e9 4880… I202…
 4 ASIA  ZENNE… WATK… F      <NA>  EMORY…      2025 PHYSICIA… 1.88e9 9830… I202…
 5 BRIT… MARIE  STEN… F      <NA>  MERCE…      2025 PHYSICIA… 1.04e9 7214… I202…
 6 WESL… WHITF… LONG  M      CNA   UNIVE…      2025 CERTIFIE… 1.82e9 9638… I202…
 7 HAYL… N      LAKE  F      <NA>  UNIVE…      2025 PHYSICIA… 1.40e9 4981… I202…
 8 COLE  THORN… STUA… M      DC    LIFE …      2025 CHIROPRA… 1.54e9 6709… I202…
 9 SUMM… LYNN   LIND… F      <NA>  MERCE…      2025 PHYSICIA… 1.15e9 5991… I202…
10 NICH… <NA>   HADL… M      <NA>  UNIVE…      2025 PHYSICAL… 1.19e9 3971… I202…
# ℹ 182 more rows
# ℹ 7 more variables: org_name <chr>, org_pac <chr>, members <int>,
#   address <chr>, city <chr>, state <chr>, zip <chr>
```

##### :outbox_tray: Opt-Out Affidavits

``` r
x <- opt_out(
  city = "Atlanta",
  state = "GA")
✔ opt_out returned 352 results.
x
# A tibble: 352 × 12
        npi first last  specialty start_date end_date   updated    address city 
      <int> <chr> <chr> <chr>     <date>     <date>     <date>     <chr>   <chr>
 1   1.88e9 Ana   Adel… Clinical… 2012-07-01 2026-07-01 2024-08-15 SUITE … ATLA…
 2   1.68e9 Sher… Born… Clinical… 2012-04-01 2028-04-01 2026-04-16 SUITE … ATLA…
 3   1.70e9 Nich… Hume  Clinical… 2018-07-01 2026-07-01 2024-08-15 693 MO… ATLA…
 4   1.31e9 Keri… Anas… Nurse Pr… 2012-07-01 2026-07-01 2024-08-15 SUITE … ATLA…
 5   1.60e9 Carol Kran… Psychiat… 2012-01-01 2028-01-01 2026-01-15 STE 210 ATLA…
 6   1.12e9 Lawr… Gius… Psychiat… 2012-07-01 2026-07-01 2024-08-15 STE 202 ATLA…
 7   1.39e9 Ceana Nezh… Obstetri… 2012-10-01 2026-10-01 2024-11-15 SUITE … ATLA…
 8   1.07e9 Frank Mata… Integrat… 2018-04-11 2026-04-11 2024-05-15 STE 405 ATLA…
 9   1.07e9 Vikt… Bouq… General … 2012-10-01 2026-10-01 2024-11-15 4646 N… ATLA…
10   1.79e9 Will… Oven  Clinical… 2017-01-23 2027-01-23 2025-02-15 SUITE … ATLA…
# ℹ 342 more rows
# ℹ 3 more variables: state <chr>, zip <chr>, order_refer <int>
```

##### :receipt: Order & Referral Eligibility

``` r
order_refer(
  npi = x[x$order_refer == 1L, ]$npi[1:100]
)
✔ order_refer returned 100 results.
# A tibble: 100 × 8
   first   last             npi   ptb   dme   hha   pmd hospice
   <chr>   <chr>          <int> <int> <int> <int> <int>   <int>
 1 SHAMINA HENKEL    1003851494     1     1     1     1       1
 2 APRIL   TEFFAULT  1003890211     1     1     0     0       0
 3 MAURIE  MINTZ     1033231048     1     1     1     1       1
 4 LAUREN  BRASWELL  1033309828     1     1     0     0       0
 5 LAURA   WESTEN    1043454150     1     1     0     0       0
 6 BARBARA NAMA      1053472894     1     1     0     0       0
 7 SANDRA  HAYES     1053608489     1     1     1     1       0
 8 VIKTOR  BOUQUETTE 1073730552     1     1     1     1       1
 9 FRANK   MATALONE  1073739249     1     1     1     0       1
10 GARLAND ANDRES    1083850630     1     1     1     1       0
# ℹ 90 more rows
```

##### :health_worker: Medicare Enrollments

``` r
providers(
  org_name = contains("West"),
  state = "GA"
)
✔ providers returned 144 results.
# A tibble: 144 × 11
   org_name      first middle last  state prov_type prov_desc    npi multi pac  
   <chr>         <chr> <chr>  <chr> <chr> <chr>     <chr>      <int> <int> <chr>
 1 WESTSIDE END… <NA>  <NA>   <NA>  GA    12-49     PART B S… 1.49e9     0 0143…
 2 WEST GEORGIA… <NA>  <NA>   <NA>  GA    12-70     PART B S… 1.88e9     0 0244…
 3 WEST PACES S… <NA>  <NA>   <NA>  GA    12-49     PART B S… 1.99e9     0 0345…
 4 NORTHWEST GE… <NA>  <NA>   <NA>  GA    12-70     PART B S… 1.57e9     0 0345…
 5 CROSSROADS T… <NA>  <NA>   <NA>  GA    12-D5     PART B S… 1.36e9     0 0345…
 6 WEST GEORGIA… <NA>  <NA>   <NA>  GA    12-70     PART B S… 1.84e9     0 0446…
 7 PREFERRED VA… <NA>  <NA>   <NA>  GA    12-70     PART B S… 1.79e9     0 0446…
 8 WEST COBB SP… <NA>  <NA>   <NA>  GA    12-A5     PART B S… 1.18e9     0 0446…
 9 NORTHWEST IO… <NA>  <NA>   <NA>  GA    12-70     PART B S… 1.22e9     0 0749…
10 NORTHWEST EN… <NA>  <NA>   <NA>  GA    12-49     PART B S… 1.99e9     0 0749…
# ℹ 134 more rows
# ℹ 1 more variable: enid <chr>
```

##### :calendar: Pending Enrollments

``` r
pending(
  first = starts("E"),
  last = ends("A"))
✔ pending returned 36 results.
• Physician     : 16
• Non-Physician : 20
# A tibble: 36 × 4
   prov_type first     last             npi
   <chr>     <chr>     <chr>          <int>
 1 Physician EDMUND    TAKATA    1518808906
 2 Physician EDWARD    KEDDA     1639871965
 3 Physician EILEEN    SANTA     1952440083
 4 Physician ELIAS     SALAMA    1508660655
 5 Physician ELISABETH HODARA    1447871546
 6 Physician ELIZABETH CARADONNA 1073453312
 7 Physician ELIZABETH PERAZZA   1942230891
 8 Physician ELLEN     HUHULEA   1659219442
 9 Physician ELYSSA    MOLINA    1508624891
10 Physician EMILY     MEARA     1508706516
# ℹ 26 more rows
```
…
##### :mag_right: Hospital Transparency Enforcement

``` r
transparency(
  action = "closure", 
  state = "WA")
✔ transparency returned 39 results.
# A tibble: 39 × 7
    case name                             address city  state action action_date
   <int> <chr>                            <chr>   <chr> <chr> <chr>  <date>     
 1  1291 Arbor Health Morton Hospital     521 Ad… Mort… WA    Closu… 2023-04-13 
 2  2248 Arbor Health Morton Hospital     521 Ad… Mort… WA    Closu… 2024-05-30 
 3  2849 Astria Toppenish Hospital        502 W … Topp… WA    Closu… 2024-12-30 
 4  6638 Cascade Medical Center           817 Co… Leav… WA    Closu… 2025-12-18 
 5  4578 CHI Franciscan Rehabilitation H… 815 S … Taco… WA    Closu… 2025-08-25 
 6  6707 Columbia Basin Hospital          200 Na… Ephr… WA    Closu… 2026-01-12 
 7  6717 Coulee Medical Center            411 Fo… Gran… WA    Closu… 2025-12-30 
 8  6731 Dayton General Hospital          1012 S… Dayt… WA    Closu… 2025-12-01 
 9   866 East Adams Rural Healthcare      903 S … Ritz… WA    Closu… 2024-02-29 
10  6191 EvergreenHealth Kirkland         12040 … Kirk… WA    Closu… 2025-12-19 
# ℹ 29 more rows
```
…
