…
fastplyr::new_tbl(
 npi = x$data[, 1],
 multi = x$data[, 2],
 pac = x$data[, 3],
 enid = x$data[, 4],
 pr_code = x$data[, 5],
 pr_type = x$data[, 6],
 state = x$data[, 7],
 first = x$data[, 8],
 middle = x$data[, 9],
 last = x$data[, 10],
 org = x$data[, 11]
)
# A tibble: 100 × 11
   npi        multi pac     enid  pr_code pr_type state first middle last  org  
   <chr>      <chr> <chr>   <chr> <chr>   <chr>   <chr> <chr> <chr>  <chr> <chr>
 1 1497881189 N     125424… I200… 14-01   PRACTI… PR    ELVIA "AREL… AYALA ""   
 2 1396775714 N     296131… I200… 14-01   PRACTI… PR    RAMON ""     PEREZ ""   
 3 1558464982 N     913303… I200… 14-01   PRACTI… PR    LUIS  ""     ARTA… ""   
 4 1477524981 N     448656… I200… 14-01   PRACTI… PR    JUANA ""     FIGU… ""   
 5 1316041775 N     953707… I200… 14-01   PRACTI… PR    EMIL… ""     ENCA… ""   
 6 1891846697 N     701282… I200… 14-01   PRACTI… PR    HILDA "M"    VELE… ""   
 7 1982645057 N     478959… I200… 14-01   PRACTI… PR    LEMU… "O"    SOTO… ""   
 8 1619927621 N     791181… I200… 14-01   PRACTI… PR    ZULMA ""     FERN… ""   
 9 1609894237 N     600272… I200… 14-01   PRACTI… PR    MARIA "A"    GARC… ""   
10 1457368847 N     711383… I200… 14-01   PRACTI… PR    JORGE "L"    GONZ… ""   
# ℹ 90 more rows
```
…
