…
affiliations(parent_ccn = 331302)
#> ✔ affiliations returned 4 results.
#> # A tibble: 4 × 9
#>        npi pac   last  first middle suffix facility_type facility_ccn parent_ccn
#> *    <int> <chr> <chr> <chr> <chr>  <chr>  <chr>         <chr>        <chr>     
#> 1   1.07e9 3870… KLOTZ JEFF… NA     NA     Nursing home  33Z302       331302    
#> 2   1.40e9 8921… HALL… MARY  K      NA     Nursing home  33Z302       331302    
#> 3   1.54e9 0547… CHON  IL    JUN    NA     Nursing home  33Z302       331302    
#> 4   1.56e9 6709… BANU  DRAG… NA     NA     Nursing home  33Z302       331302    

affiliations(facility_ccn = 331302)
#> ✔ affiliations returned 206 results.
#> # A tibble: 206 × 9
#>        npi pac   last  first middle suffix facility_type facility_ccn parent_ccn
#>  *   <int> <chr> <chr> <chr> <chr>  <chr>  <chr>         <chr>        <chr>     
#>  1  1.00e9 1759… GREE… LAURA A      NA     Hospital      331302       NA        
#>  2  1.01e9 9133… VASS… NAROD NA     NA     Hospital      331302       NA        
#>  3  1.01e9 3375… TRIP… EMILY NA     NA     Hospital      331302       NA        
#>  4  1.01e9 5890… ACOS… JOSE  M      NA     Hospital      331302       NA        
#>  5  1.02e9 6901… WILH… LIND… B      NA     Hospital      331302       NA        
#>  6  1.04e9 4183… TRAM… ANTH… F      NA     Hospital      331302       NA        
#>  7  1.04e9 7214… FIOR… VANE… NA     NA     Hospital      331302       NA        
#>  8  1.05e9 9234… O'NE… CONOR NA     NA     Hospital      331302       NA        
#>  9  1.06e9 9436… YOUNG JOHN  NA     NA     Hospital      331302       NA        
#> 10  1.06e9 3476… BENAK ROBE… L      NA     Hospital      331302       NA        
#> # ℹ 196 more rows

affiliations(first = "Andrew", last = contains("B"), facility_type = "hospital")
#> ✔ affiliations returned 1,601 results.
#> ℹ Retrieving 2 pages...
#> # A tibble: 1,601 × 9
#>        npi pac   last  first middle suffix facility_type facility_ccn parent_ccn
#>  *   <int> <chr> <chr> <chr> <chr>  <chr>  <chr>         <chr>        <chr>     
#>  1  1.00e9 8628… RODE… ANDR… LEWIS  NA     Hospital      350002       NA        
#>  2  1.00e9 8729… BELL… ANDR… NA     NA     Hospital      330234       NA        
#>  3  1.00e9 9032… KUBI… ANDR… J      NA     Hospital      520045       NA        
#>  4  1.00e9 4082… BERN… ANDR… NA     NA     Hospital      390133       NA        
#>  5  1.01e9 9739… BOMB… ANDR… S      NA     Hospital      330101       NA        
#>  6  1.01e9 4587… BARB… ANDR… NA     NA     Hospital      340030       NA        
#>  7  1.01e9 8628… BUCK… ANDR… D      NA     Hospital      180002       NA        
#>  8  1.01e9 8628… BUCK… ANDR… D      NA     Hospital      180020       NA        
#>  9  1.01e9 2466… BARE… ANDR… NA     NA     Hospital      450039       NA        
#> 10  1.01e9 5294… BOUW… ANDR… ROBERT NA     Hospital      180130       NA        
#> # ℹ 1,591 more rows
```
