Search the Medicare Monthly Enrollment API — beneficiary_enrollment • provider
…
beneficiary_enrollment(level = "State", fips = "10")
#> # A tibble: 131 × 26
#>     year month     level state state_name county fips  bene_total bene_orig
#>    <int> <chr>     <chr> <chr> <chr>      <chr>  <chr>      <int>     <int>
#>  1  2013 Year      State DE    Delaware   Total  10        167686    155803
#>  2  2013 January   State DE    Delaware   Total  10        165415    153731
#>  3  2013 February  State DE    Delaware   Total  10        165732    153988
#>  4  2013 March     State DE    Delaware   Total  10        166144    154433
#>  5  2013 April     State DE    Delaware   Total  10        166543    154782
#>  6  2013 May       State DE    Delaware   Total  10        166860    155047
#>  7  2013 June      State DE    Delaware   Total  10        167294    155431
#>  8  2013 July      State DE    Delaware   Total  10        167851    155924
#>  9  2013 August    State DE    Delaware   Total  10        168302    156322
#> 10  2013 September State DE    Delaware   Total  10        168827    156808
#> # ℹ 121 more rows
#> # ℹ 17 more variables: bene_ma_oth <int>, bene_aged_total <int>,
#> #   bene_aged_esrd <int>, bene_aged_no_esrd <int>, bene_dsb_total <int>,
#> #   bene_dsb_esrd <int>, bene_dsb_no_esrd <int>, bene_ab_total <int>,
#> #   bene_ab_orig <int>, bene_ab_ma_oth <int>, bene_rx_total <int>,
#> #   bene_rx_pdp <int>, bene_rx_mapd <int>, bene_rx_elig <int>,
#> #   bene_rx_full <int>, bene_rx_part <int>, bene_rx_none <int>
…
