…
esrd(rating = 1)
#> ✔ esrd returned 823 results.
#> # A tibble: 823 × 12
#>    ccn    fac_name     rating network status chain_name cert_date  address city 
#>    <chr>  <chr>         <int>   <int> <chr>  <chr>      <date>     <chr>   <chr>
#>  1 012533 DaVita Walk…      1       8 Profit DaVita     1987-12-29 260 6t… JASP…
#>  2 012543 DaVita Demo…      1       8 Profit DaVita     1992-05-20 305 So… Demo…
#>  3 012545 DaVita Tusc…      1       8 Profit DaVita     1992-08-11 805 OL… TUSC…
#>  4 012570 DaVita Nort…      1       8 Profit DaVita     1996-12-03 Suite … NORT…
#>  5 012576 DCI MONTGOM…      1       8 Non-p… Dialysis … 1998-06-05 544 SO… MONT…
#>  6 012598 DCI PHENIX …      1       8 Profit Dialysis … 2000-02-09 1611 2… PHEN…
#>  7 012606 FMC CHASE         1       8 Profit Fresenius… 2002-09-19 1849 K… HUNT…
#>  8 012613 FMC DISCOVE…      1       8 Profit Fresenius… 2004-03-17 1131 E… HUNT…
#>  9 012618 RRC NORTHRI…      1       8 Profit Fresenius… 2006-10-25 Suite A NORT…
#> 10 012641 DCI EVERGRE…      1       8 Non-p… Dialysis … 2011-01-27 822 WI… EVER…
#> # ℹ 813 more rows
#> # ℹ 3 more variables: state <chr>, zip <chr>, county <chr>

esrd(network = 15:18)
#> ✔ esrd returned 1,404 results.
#> # A tibble: 1,404 × 12
#>    ccn    fac_name     rating network status chain_name cert_date  address city 
#>    <chr>  <chr>         <int>   <int> <chr>  <chr>      <date>     <chr>   <chr>
#>  1 022500 USRC LAUREL…      3      16 Profit US Renal … 1976-09-01 3950 L… ANCH…
#>  2 022502 USRC FAIRBA…      3      16 Profit Fresenius… 1985-06-27 1863 A… FAIR…
#>  3 022503 USRC GROUP …      3      16 Profit Fresenius… 2004-03-29 3787 E… WASI…
#>  4 022504 JUNEAU DIAL…      5      16 Profit Fresenius… 2004-03-26 9109 M… JUNE…
#>  5 022506 USRC DIMOND       5      16 Profit US Renal … 2009-05-07 901 EA… ANCH…
#>  6 022508 USRC SOLDOT…      5      16 Profit Fresenius… 2009-12-08 289 N … SOLD…
#>  7 022509 USRC DENALI…      5      16 Profit US Renal … 2012-11-29 360 BO… ANCH…
#>  8 032302 Valleywise …      3      15 Non-p… Independe… 1997-10-07 2525 E… PHOE…
#>  9 032314 032314 PHOE…     NA      15 Non-p… Independe… 2001-10-22 1920 E… PHOE…
#> 10 032315 032315 GILA…      3      15 Non-p… Independe… 2006-01-04 565 W … SACA…
#> # ℹ 1,394 more rows
#> # ℹ 3 more variables: state <chr>, zip <chr>, county <chr>
```
