Search the CMS Physician Facility Affiliations API — facility_affiliations • provider
…
    Examples

facility_affiliations(npi = 1003019563)
#> # A tibble: 4 × 10
#>   record_num…¹ npi   ind_p…² lst_nm frst_nm mid_nm suff  facil…³ facil…⁴ paren…⁵
#>   <chr>        <chr> <chr>   <chr>  <chr>   <chr>  <chr> <chr>   <chr>   <chr>  
#> 1 2541         1003… 468870… FRANK  JOHN    JOSEPH NA    Hospit… 060004  NA     
#> 2 2546         1003… 468870… FRANK  JOHN    JOSEPH NA    Hospit… 060009  NA     
#> 3 2551         1003… 468870… FRANK  JOHN    JOSEPH NA    Hospit… 060028  NA     
#> 4 2556         1003… 468870… FRANK  JOHN    JOSEPH NA    Hospit… 060116  NA     
#> # … with abbreviated variable names ¹​record_number, ²​ind_pac_id,
#> #   ³​facility_type, ⁴​facility_afl_ccn, ⁵​parent_ccn
facility_affiliations(facility_ccn = "060004")
#> # A tibble: 207 × 10
#>    record_nu…¹ npi   ind_p…² lst_nm frst_nm mid_nm suff  facil…³ facil…⁴ paren…⁵
#>    <chr>       <chr> <chr>   <chr>  <chr>   <chr>  <chr> <chr>   <chr>   <chr>  
#>  1 356         1003… 600295… HAMMAN DANIEL  RICHA… NA    Hospit… 060004  NA     
#>  2 2541        1003… 468870… FRANK  JOHN    JOSEPH NA    Hospit… 060004  NA     
#>  3 5431        1003… 589092… DONAH… ARTHUR  H      NA    Hospit… 060004  NA     
#>  4 13046       1003… 650718… HIGHA… JAMES   CHARL… NA    Hospit… 060004  NA     
#>  5 54036       1003… 125432… WEINER GARETH  R      NA    Hospit… 060004  NA     
#>  6 77556       1003… 549690… KLIMA  KATHRYN ANN    NA    Hospit… 060004  NA     
#>  7 85561       1013… 781009… HELZER AMITY   D      NA    Hospit… 060004  NA     
#>  8 90536       1013… 438589… PYLE   ASHLEY  L      NA    Hospit… 060004  NA     
#>  9 150361      1013… 155737… MUWAL… FIRAS   NA     NA    Hospit… 060004  NA     
#> 10 201526      1023… 286068… LUCCI  CHAD    MICHA… NA    Hospit… 060004  NA     
#> # … with 197 more rows, and abbreviated variable names ¹​record_number,
#> #   ²​ind_pac_id, ³​facility_type, ⁴​facility_afl_ccn, ⁵​parent_ccn
…
