FQHC Owners — fqhc_owner • provider
…
    Value

    A tibble

    Examples

fqhc_owner(count = TRUE)
#> fqhc_owner Totals
#> • Rows  : 148,919
#> • Pages : 30     
#> 

fqhc_owner(state = c("GA", "FL"))
#> ✔ fqhc_owner returned 254 results.
#> # A tibble: 254 × 20
#>    enid       pac   org_name own_pac own_role own_date   own_org own_dba own_pct
#>  * <chr>      <chr> <chr>    <chr>   <chr>    <date>     <chr>   <chr>     <dbl>
#>  1 O20030417… 3577… NORTH B… 357747… 5% OR G… 1993-07-01 NORTH … BROWAR…     100
#>  2 O20030417… 3577… NORTH B… 357747… OPERATI… 1993-10-01 NORTH … BROWAR…     100
#>  3 O20030417… 3577… NORTH B… 357747… 5% OR G… 1993-07-01 NORTH … BROWAR…     100
#>  4 O20030417… 3577… NORTH B… 357747… OPERATI… 1993-07-01 NORTH … BROWAR…     100
#>  5 O20070613… 9931… FLORIDA… 993101… OPERATI… 2018-04-01 FLORID… FORT P…       0
#>  6 O20090826… 2365… TRENTON… 236535… OPERATI… 2014-02-27 TRENTO… PALMS …     100
#>  7 O20100510… 7214… MCR HEA… 721484… 5% OR G… 2009-11-02 MCR HE… MCR HE…      NA
#>  8 O20100809… 9931… FLORIDA… 993101… OPERATI… 2018-04-01 FLORID… FORT P…       0
#>  9 O20100902… 7214… MCR HEA… 721484… 5% OR G… 1977-10-11 MCR HE… MCR HE…      NA
#> 10 O20100907… 7214… MCR HEA… 721484… 5% OR G… 1977-10-11 MCR HE… MCR HE…      NA
#> # ℹ 244 more rows
#> # ℹ 11 more variables: entity <chr>, title <chr>, first <chr>, middle <chr>,
#> #   last <chr>, add_1 <chr>, city <chr>, state <chr>, zip <chr>, oth_txt <chr>,
#> #   own_ind <chr>
…
