Hospitals Enrolled in Medicare — hospitals • provider
…
    Value

    A tibble

    Examples

hospitals(count = TRUE)
#> ℹ hospitals has 9,187 rows.
hospitals2(count = TRUE)
#> ℹ hospitals2 has 5,426 rows.

hospitals(prov_type = "reh")
#> ✔ hospitals returned 44 results.
#> # A tibble: 44 × 39
#>    org_name org_dba enid  enid_state prov_type prov_desc npi   multi ccn   ccn2 
#>  * <chr>    <chr>   <chr> <chr>      <chr>     <chr>     <chr> <chr> <chr> <chr>
#>  1 GUADALU… GUADAL… O202… NM         00-24     PART A P… 1346… N     3207… 3200…
#>  2 CROSBYT… NA      O202… TX         00-24     PART A P… 1063… N     6707… 4513…
#>  3 STILLWA… STILLW… O202… OK         00-24     PART A P… 1003… N     3707… 3701…
#>  4 ANSON H… ANSON … O202… TX         00-24     PART A P… 1457… N     6707… 4500…
#>  5 FALLS C… NA      O202… TX         00-24     PART A P… 1841… N     6707… 4503…
#>  6 IRWIN C… PROGRE… O202… GA         00-24     PART A P… 1720… N     1107… 1101…
#>  7 MEMORIA… CHI ST… O202… TX         00-24     PART A P… 1578… N     6707… 4513…
#>  8 STILLWA… STILLW… O202… OK         00-24     PART A P… 1104… N     3707… 3700…
#>  9 OUR LAD… NA      O202… LA         00-24     PART A P… 1609… N     1907… 1913…
#> 10 STURGIS… STURGI… O202… MI         00-24     PART A P… 1598… N     2307… 2300…
#> # ℹ 34 more rows
#> # ℹ 29 more variables: pac <chr>, inc_date <chr>, inc_state <chr>,
#> #   org_type <chr>, org_otxt <chr>, org_status <chr>, add_1 <chr>, add_2 <chr>,
#> #   city <chr>, state <chr>, zip <chr>, loc_type <chr>, loc_otxt <chr>,
#> #   reh_ind <chr>, reh_date <chr>, sub_gen <chr>, sub_acute <chr>,
#> #   sub_adu <chr>, sub_child <chr>, sub_ltc <chr>, sub_psych <chr>,
#> #   sub_irf <chr>, sub_stc <chr>, sub_sba <chr>, sub_psychu <chr>, …
…
