…
A [tibble](https://tibble.tidyverse.org/reference/tibble-package.html)
containing the search results.

## Examples

``` r
hospitals(count = TRUE)
#> ◼ hospitals | 9,175 rows | 2 pages

hospitals(prov_type = "cah", state = "GA")
#> ✔ hospitals returned 65 results
#> ✔ Retrieving 1 page
#> ✔ hospitals2 returned 31 results
#> ✔ Retrieving 1 page
#> # A tibble: 65 × 18
#>    org_name    org_dba enid     npi multi ccn   pac   inc_date   org_type status
#>    <chr>       <chr>   <chr>  <int> <int> <chr> <chr> <date>     <chr>    <chr> 
#>  1 BROOKS COU… ARCHBO… O200… 1.58e9     0 11Z3… 1557… NA         Other: … Non-P…
#>  2 HOSPITAL A… ARCHBO… O200… 1.70e9     0 1113… 6002… NA         Other: … Gover…
#>  3 HOSPITAL A… ARCHBO… O200… 1.44e9     0 11Z3… 6002… NA         Other: … Non-P…
#>  4 PUTNAM GEN… PUTNAM… O200… 1.39e9     0 1113… 4688… 1968-03-01 Other: … Gover…
#>  5 PUTNAM GEN… PUTNAM… O200… 1.55e9     0 11Z3… 4688… 1968-03-01 Other: … For-P…
#>  6 THE HOSPIT… MILLER… O200… 1.11e9     0 1113… 0244… NA         Other: … Gover…
#>  7 THE HOSPIT… MILLER… O200… 1.29e9     0 11Z3… 0244… NA         Other: … Non-P…
#>  8 PROFESSION… MOUNTA… O200… 1.33e9     0 1113… 1052… 2004-12-17 LLC      Propr…
#>  9 HOSPITAL A… WILLS … O200… 1.62e9     0 1113… 8628… NA         Other: … Gover…
#> 10 HOSPITAL A… WILLS … O200… 1.48e9     0 11Z3… 8628… NA         Other: … Non-P…
#> # ℹ 55 more rows
#> # ℹ 8 more variables: address <chr>, city <chr>, state <chr>, zip <chr>,
#> #   loc_type <chr>, sub_group <chr>, rating <int>, county <chr>
…
