…
## Value

A [tibble](https://tibble.tidyverse.org/reference/tibble-package.html)
containing the search results.

## Examples

``` r
hospital(count = TRUE)
#> ◼ hospital | 9,175 rows | 2 pages

hospital(prov_type = "cah", state = "GA")
#> ✔ hospital returned 65 results
#> # A tibble: 65 × 16
#>    org_name    org_dba ccn      npi pac   enid  multi inc_date   org_type status
#>    <chr>       <chr>   <chr>  <int> <chr> <chr> <int> <date>     <chr>    <chr> 
#>  1 BROOKS COU… ARCHBO… 11Z3… 1.58e9 1557… O200…     0 NA         Other: … Non-P…
#>  2 HOSPITAL A… ARCHBO… 1113… 1.70e9 6002… O200…     0 NA         Other: … Non-P…
#>  3 HOSPITAL A… ARCHBO… 11Z3… 1.44e9 6002… O200…     0 NA         Other: … Non-P…
#>  4 PUTNAM GEN… PUTNAM… 1113… 1.39e9 4688… O200…     0 1968-03-01 Other: … Non-P…
#>  5 PUTNAM GEN… PUTNAM… 11Z3… 1.55e9 4688… O200…     0 1968-03-01 Other: … For-P…
#>  6 THE HOSPIT… MILLER… 1113… 1.11e9 0244… O200…     0 NA         Other: … Non-P…
#>  7 THE HOSPIT… MILLER… 11Z3… 1.29e9 0244… O200…     0 NA         Other: … Non-P…
#>  8 PROFESSION… MOUNTA… 1113… 1.33e9 1052… O200…     0 2004-12-17 LLC      For-P…
#>  9 HOSPITAL A… WILLS … 1113… 1.62e9 8628… O200…     0 NA         Other: … Non-P…
#> 10 HOSPITAL A… WILLS … 11Z3… 1.48e9 8628… O200…     0 NA         Other: … Non-P…
#> # ℹ 55 more rows
#> # ℹ 6 more variables: loc_type <chr>, address <chr>, city <chr>, state <chr>,
#> #   zip <chr>, sub_group <chr>
…
