…
laboratories(
   cert = c("ppm"),
   city = not_equal("Valdosta"),
   state = "GA",
   active = TRUE
 )
#> ✔ Query returned 896 results.
#> # A tibble: 896 × 82
#>    fac_name_1     fac_name_2 ccn   xref  chow_n chow_date chow_prev pos   status
#>    <chr>          <chr>      <chr> <chr> <chr>  <chr>     <chr>     <chr> <chr> 
#>  1 WELLSTAR OB/G… NA         11D0… NA    0      NA        NA        Y     A     
#>  2 COBB WOMENS H… NA         11D0… NA    0      NA        NA        Y     A     
#>  3 WELLSTAR COBB… NA         11D0… NA    0      NA        NA        N     NA    
#>  4 WELLSTAR OB/G… NA         11D0… NA    0      NA        NA        N     NA    
#>  5 ATLANTA GYNEC… NA         11D0… NA    0      NA        NA        N     NA    
#>  6 CONCENTRA - D… NA         11D0… NA    0      NA        NA        Y     A     
#>  7 MEDCURA HEALT… NA         11D0… NA    0      NA        NA        N     NA    
#>  8 SOUTH DEKALB … NA         11D0… NA    0      NA        NA        Y     A     
#>  9 SNAPFINGER WO… NA         11D0… NA    0      NA        NA        N     NA    
#> 10 GEORGIA KIDNE… NA         11D0… NA    0      NA        NA        Y     A     
#> # ℹ 886 more rows
#> # ℹ 73 more variables: add_1 <chr>, add_2 <chr>, phone_1 <chr>, phone_2 <chr>,
#> #   city <chr>, state <chr>, region <chr>, zip <chr>, state_ssa <chr>,
#> #   county_ssa <chr>, fips_state <chr>, fips_county <chr>, state_reg <chr>,
#> #   cbsa_cd <chr>, cbsa_ind <chr>, eligible <chr>, term_pgm <chr>,
#> #   term_clia <chr>, apl_type <chr>, cert_type <chr>, fac_type <chr>,
#> #   ownership <chr>, cert_action <chr>, orig_date <chr>, apl_date <chr>, …
```
