…
#>  8 1306500665      2 DO    FAHI… SASAN Foun… PEACH S… NA      KINDBO… 2024-05-20
#>  9 1548743511      2 DO    FAHI… SASAN Owne… EMPIRE … NA      NA      NA        
#> 10 1689182859      2 RMC   KATR… MARS… Dire… VIOS FE… VIOS F… VIOS F… 2023-05-03
#> 11 1841967825      2 DO    FAHI… SASAN Foun… PEACH S… NA      KINDBO… 2024-05-20
#> 12 1861857013      2 MD    AMBER COOP… Medi… CENTERS… NA      NA      2024-02-12
#> 13 1891355863      2 NA    SHIL… PATEL Chie… FAHIMEH… KBI SE… KINDBO… 2020-02-21
#> 14 1891390084      2 DO    FAHI… SASAN Foun… PEACH S… KBI SE… KINDBO… 2024-05-20
#> 15 1962116806      2 DO    FAHI… SASAN Foun… PEACH S… PEACH … KINDBO… 2024-05-20
#> 16 1982059275      2 NA    HANN… JOHN… Dire… VIOS FE… NA      NA      NA        
#> 17 1982296737      2 DO    FAHI… SASAN Foun… KINDBOD… NA      NA      2021-02-03
#> 18 1992338701      2 NA    SHIL… PATEL Chie… GARDEN … KBI SE… KINDBO… 2020-02-20
#> # ℹ 2 more variables: enum_date <date>, last_update <date>
#> 
#> $org$taxonomy
#> # A tibble: 46 × 3
#>           npi order code      
#>         <int> <int> <chr>     
#>  1 1992338701     0 193200000X
#>  2 1992338701     1 207VE0102X
#>  3 1992338701     2 207V00000X
#>  4 1982296737     0 193200000X
#>  5 1982296737     1 207V00000X
#>  6 1982296737     2 207VE0102X
#>  7 1982059275     0 193400000X
#>  8 1982059275     1 207VE0102X
#>  9 1962116806     0 193200000X
#> 10 1962116806     1 207VE0102X
#> # ℹ 36 more rows
#> 
#> $org$location
#> # A tibble: 37 × 6
#>           npi   loc city         state address                        zip      
#>  *      <int> <int> <chr>        <chr> <chr>                          <chr>    
#>  1 1013647569     1 ROGERS       AR    2203 S PROMENADE BLVD STE 5185 727588722
#>  2 1013647569     3 CHICAGO      IL    333 S DESPLAINES ST STE 201    606615514
#>  3 1023473279     1 CREVE COEUR  MO    347 N LINDBERGH BLVD           631417811
#>  4 1023473279     3 SAINT LOUIS  MO    621 S NEW BALLAS RD            631418232
#>  5 1083295638     1 AUSTIN       TX    100 COLORADO ST                787014147
#>  6 1083295638     2 HOUSTON      TX    1111 UPTOWN PARK BLVD STE 2    770563224
#>  7 1083295638     2 DALLAS       TX    8041 WALNUT HILL LN STE 870    752310954
#>  8 1083295638     3 CHICAGO      IL    333 S DESPLAINES ST STE 201    606615514
#>  9 1174270805     1 PHILADELPHIA PA    1414 WALNUT ST                 191023824
#> 10 1174270805     3 CHICAGO      IL    333 S DESPLAINES ST STE 201    606615514
#> # ℹ 27 more rows
…
