NPPES: National Registry of Health Care Providers — nppes • provider
…
#>  8 1306500665      2 DO    FAHI… SASAN Foun… PEACH S… NA      KINDBO… 2024-05-20
#>  9 1548743511      2 DO    FAHI… SASAN Owne… EMPIRE … NA      NA      NA        
#> 10 1689182859      2 RMC   KATR… MARS… Dire… VIOS FE… VIOS F… VIOS F… 2023-05-03
#> 11 1841967825      2 DO    FAHI… SASAN Foun… PEACH S… NA      KINDBO… 2024-05-20
#> 12 1861857013      2 MD    AMBER COOP… Medi… CENTERS… NA      NA      2024-02-12
#> 13 1891355863      2 NA    SHIL… PATEL Chie… FAHIMEH… KBI SE… KINDBO… 2020-02-21
#> 14 1891390084      2 DO    FAHI… SASAN Foun… PEACH S… KBI SE… KINDBO… 2024-05-20
#> 15 1962116806      2 DO    FAHI… SASAN Foun… PEACH S… PEACH … KINDBO… 2024-05-20
#> 16 1982059275      2 NA    HANN… JOHN… Dire… VIOS FE… NA      NA      NA        
#> 17 1982296737      2 DO    FAHI… SASAN Foun… KINDBOD… NA      NA      2021-02-03
#> 18 1992338701      2 NA    SHIL… PATEL Chie… GARDEN … KBI SE… KINDBO… 2020-02-20
#> # ℹ 2 more variables: enum_date <date>, last_update <date>
#> 
#> $org$taxonomy
#> # A tibble: 30 × 5
#>           npi order code                  license   state
#>  *      <int> <int> <chr>                 <chr>     <chr>
#>  1 1013647569     1 207VE0102X:193200000X NA        NA   
#>  2 1013647569     2 207V00000X:193200000X NA        NA   
#>  3 1023473279     1 207VE0102X:193400000X 036139011 MO   
#>  4 1083295638     1 261QA0006X            NA        NA   
#>  5 1083295638     2 261QF0050X            NA        NA   
#>  6 1174270805     1 207VE0102X:193200000X NA        NA   
#>  7 1174270805     2 207VG0400X:193200000X NA        NA   
#>  8 1225701881     1 207VE0102X:193400000X NA        NA   
#>  9 1235702796     1 207VE0102X:193400000X NA        NA   
#> 10 1275117269     1 207VE0102X:193200000X NA        NA   
#> # ℹ 20 more rows
#> 
#> $org$location
#> # A tibble: 37 × 6
#>           npi address                          loc city         zip       state
#>         <int> <chr>                          <int> <chr>        <chr>     <chr>
#>  1 1013647569 2203 S PROMENADE BLVD STE 5185     1 ROGERS       727588722 AR   
#>  2 1013647569 333 S DESPLAINES ST STE 201        3 CHICAGO      606615514 IL   
#>  3 1023473279 347 N LINDBERGH BLVD               1 CREVE COEUR  631417811 MO   
#>  4 1023473279 621 S NEW BALLAS RD                3 SAINT LOUIS  631418232 MO   
#>  5 1083295638 100 COLORADO ST                    1 AUSTIN       787014147 TX   
#>  6 1083295638 333 S DESPLAINES ST STE 201        3 CHICAGO      606615514 IL   
#>  7 1174270805 1414 WALNUT ST                     1 PHILADELPHIA 191023824 PA   
#>  8 1174270805 333 S DESPLAINES ST STE 201        3 CHICAGO      606615514 IL   
#>  9 1225701881 26400 W 12 MILE RD STE 140         1 SOUTHFIELD   480341753 MI   
#> 10 1235702796 2501 NE 134TH ST STE 100           1 VANCOUVER    986863027 WA   
#> # ℹ 27 more rows
…
