…
- [CMS: Ordering &
  Certifying](https://www.cms.gov/medicare/enrollment-renewal/providers-suppliers/chain-ownership-system-pecos/ordering-certifying)

## Examples

``` r
order_refer(count = TRUE)
#> ◼ order_refer | 2,009,566 rows | 402 pages

order_refer(first = "Jennifer", last = "Smith")
#> ✔ order_refer returned 135 results
#> ✔ Retrieving 1 page
#> # A tibble: 135 × 8
#>    first    last         npi ptb_ind dme_ind hha_ind pmd_ind hsp_ind
#>    <chr>    <chr>      <int>   <int>   <int>   <int>   <int>   <int>
#>  1 JENNIFER SMITH 1215919170       1       1       1       1       1
#>  2 JENNIFER SMITH 1053842450       1       1       1       1       1
#>  3 JENNIFER SMITH 1063180420       1       1       1       1       0
#>  4 JENNIFER SMITH 1952073652       1       1       1       1       0
#>  5 JENNIFER SMITH 1285898619       1       1       1       0       1
#>  6 JENNIFER SMITH 1861988990       1       1       1       0       1
#>  7 JENNIFER SMITH 1821069931       1       1       1       1       0
#>  8 JENNIFER SMITH 1790063832       1       1       1       1       1
#>  9 JENNIFER SMITH 1184142903       1       1       1       1       0
#> 10 JENNIFER SMITH 1467884627       1       1       0       0       0
#> # ℹ 125 more rows
```
