…
## Value

A [tibble](https://tibble.tidyverse.org/reference/tibble-package.html)
containing the search results.

## Examples

``` r
outpatient(count = TRUE)
#> ◼ outpatient | 1,008,975 rows | 208 pages
outpatient(state = "GA", city = "Valdosta")
#> ✔ outpatient returned 442 results
#> ✔ Retrieving 10 pages
#> # A tibble: 442 × 16
#>     year ccn    org_name address city  state zip   apc   desc  patients services
#>    <int> <chr>  <chr>    <chr>   <chr> <chr> <chr> <chr> <chr>    <int>    <int>
#>  1  2015 110122 South G… 2501 N… Vald… GA    31603 0039  Leve…       11       12
#>  2  2015 110122 South G… 2501 N… Vald… GA    31603 0061  Leve…       NA       NA
#>  3  2015 110122 South G… 2501 N… Vald… GA    31603 0083  Leve…      102      150
#>  4  2015 110122 South G… 2501 N… Vald… GA    31603 0089  Leve…       72       72
#>  5  2015 110122 South G… 2501 N… Vald… GA    31603 0090  Leve…       17       17
#>  6  2015 110122 South G… 2501 N… Vald… GA    31603 0107  Leve…       NA       NA
#>  7  2015 110122 South G… 2501 N… Vald… GA    31603 0108  Leve…       14       14
#>  8  2015 110122 South G… 2501 N… Vald… GA    31603 0202  Leve…       NA       NA
#>  9  2015 110122 South G… 2501 N… Vald… GA    31603 0229  Leve…      125      131
#> 10  2015 110122 South G… 2501 N… Vald… GA    31603 0318  Leve…       32       32
#> # ℹ 432 more rows
#> # ℹ 5 more variables: outliers <int>, charge <dbl>, allowed <dbl>,
#> #   payment <dbl>, outpay <dbl>
```
