Provider Enrollment in Medicare — providers • provider
…
providers(org_name = starts("AB"), state = c("TX", "CA"))
#> ✔ providers returned 231 results.
#> # A tibble: 231 × 11
#>           npi multi pac       enid  prov_type prov_desc state first middle last 
#>         <int> <int> <chr>     <chr> <chr>     <chr>     <chr> <chr> <chr>  <chr>
#>  1 1316018310     0 00421157… O200… 00-18     PART A P… CA    NA    NA     NA   
#>  2 1336574466     0 00424482… O201… 12-70     PART B S… TX    NA    NA     NA   
#>  3 1538413174     0 00424550… O201… 12-70     PART B S… TX    NA    NA     NA   
#>  4 1962681304     0 01433064… O200… 12-70     PART B S… TX    NA    NA     NA   
#>  5 1215156021     0 02443146… O200… 00-08     PART A P… TX    NA    NA     NA   
#>  6 1790059848     0 02444991… O201… 12-70     PART B S… TX    NA    NA     NA   
#>  7 1548134257     0 02447206… O202… 12-70     PART B S… CA    NA    NA     NA   
#>  8 1477115830     0 03455796… O201… 12-70     PART B S… TX    NA    NA     NA   
#>  9 1760940563     0 04465922… O201… 12-70     PART B S… TX    NA    NA     NA   
#> 10 1255922944     0 04466595… O202… 12-70     PART B S… TX    NA    NA     NA   
#> # ℹ 221 more rows
#> # ℹ 1 more variable: org_name <chr>
…
