Search the Medicare Fee-For-Service Public Provider Enrollment API — provider_enrollment • provider
…
#> #   ¹​pecos_asct_cntl_id, ²​enrlmt_id, ³​provider_type_cd, ⁴​provider_type_desc,
#> #   ⁵​state_cd, ⁶​first_name, ⁷​mdl_name, ⁸​last_name, ⁹​org_name
provider_enrollment(prov_type_desc = "PRACTITIONER - ENDOCRINOLOGY", state = "AK", gender = "F")
#> # A tibble: 4 × 11
#>   npi    pecos…¹ enrlm…² provi…³ provi…⁴ state…⁵ first…⁶ mdl_n…⁷ last_…⁸ org_n…⁹
#>   <chr>  <chr>   <chr>   <chr>   <chr>   <chr>   <chr>   <chr>   <chr>   <chr>  
#> 1 11846… 892109… I20040… 14-46   PRACTI… AK      JANICE  "A"     KOVAL   ""     
#> 2 17109… 094111… I20091… 14-46   PRACTI… AK      JEANNE  "R"     BONAR   ""     
#> 3 14977… 438567… I20151… 14-46   PRACTI… AK      CYDNEY  ""      FENTON  ""     
#> 4 10331… 953725… I20220… 14-46   PRACTI… AK      BRENDA  ""      GOODWIN ""     
#> # … with 1 more variable: gndr_sw <chr>, and abbreviated variable names
#> #   ¹​pecos_asct_cntl_id, ²​enrlmt_id, ³​provider_type_cd, ⁴​provider_type_desc,
#> #   ⁵​state_cd, ⁶​first_name, ⁷​mdl_name, ⁸​last_name, ⁹​org_name
provider_enrollment(prov_type_code = "14-41")
#> # A tibble: 49,047 × 11
#>    npi   pecos…¹ enrlm…² provi…³ provi…⁴ state…⁵ first…⁶ mdl_n…⁷ last_…⁸ org_n…⁹
#>    <chr> <chr>   <chr>   <chr>   <chr>   <chr>   <chr>   <chr>   <chr>   <chr>  
#>  1 1083… 599161… I20031… 14-41   PRACTI… NJ      ANNA    ""      MOY     ""     
#>  2 1467… 226434… I20031… 14-41   PRACTI… MN      DONALD  "W"     CALVIN  ""     
#>  3 1093… 387040… I20031… 14-41   PRACTI… PA      STEVEN  "JOHN"  RETO    ""     
#>  4 1326… 105222… I20031… 14-41   PRACTI… IN      CHRIST… "R"     PRATHER ""     
#>  5 1295… 185020… I20031… 14-41   PRACTI… OH      MARIA   "J"     FRAGOU… ""     
#>  6 1467… 084010… I20031… 14-41   PRACTI… PA      HARRY   "NICHO… HALSCH… ""     
#>  7 1649… 711383… I20031… 14-41   PRACTI… TX      SAMANT… "N"     NAIDOO  ""     
#>  8 1093… 498151… I20031… 14-41   PRACTI… MA      LEIGH   "S"     CHERVE… ""     
#>  9 1245… 256737… I20031… 14-41   PRACTI… MN      MARSHA… ""      TILLMAN ""     
#> 10 1285… 054717… I20031… 14-41   PRACTI… NJ      STEVEN  "A"     CIPPAR… ""     
#> # … with 49,037 more rows, 1 more variable: gndr_sw <chr>, and abbreviated
#> #   variable names ¹​pecos_asct_cntl_id, ²​enrlmt_id, ³​provider_type_cd,
#> #   ⁴​provider_type_desc, ⁵​state_cd, ⁶​first_name, ⁷​mdl_name, ⁸​last_name,
#> #   ⁹​org_name
provider_enrollment(gender = "9")
#> # A tibble: 3,528 × 11
#>    npi   pecos…¹ enrlm…² provi…³ provi…⁴ state…⁵ first…⁶ mdl_n…⁷ last_…⁸ org_n…⁹
#>    <chr> <chr>   <chr>   <chr>   <chr>   <chr>   <chr>   <chr>   <chr>   <chr>  
#>  1 1134… 286030… I20031… 14-41   PRACTI… TX      ROBERT  ""      YEAMAN  ""     
#>  2 1679… 599161… I20031… 14-25   PRACTI… AL      XIAOHUA ""      ZHOU    ""     
#>  3 1013… 852797… I20031… 14-29   PRACTI… PA      GERARD  ""      CRINER  ""     
#>  4 1801… 135525… I20031… 14-34   PRACTI… NJ      DEBRA   "L"     FROMER  ""     
#>  5 1083… 620474… I20031… 14-08   PRACTI… WA      NOEL    "M"     CHIA    ""     
#>  6 1518… 741686… I20031… 14-35   PRACTI… AK      LINDA   "L"     SCHERTZ ""     
#>  7 1205… 589069… I20031… 14-43   PRACTI… TN      MICHAEL "S"     STOVALL ""     
#>  8 1194… 347645… I20031… 14-08   PRACTI… NC      KEVAN   "R"     HANSEL  ""     
#>  9 1891… 731584… I20031… 14-13   PRACTI… OH      VIJAY   "R"     RAJAN   ""     
#> 10 1821… 711382… I20031… 14-50   PRACTI… TN      BENJAM… ""      MEEKS   ""     
#> # … with 3,518 more rows, 1 more variable: gndr_sw <chr>, and abbreviated
#> #   variable names ¹​pecos_asct_cntl_id, ²​enrlmt_id, ³​provider_type_cd,
#> #   ⁴​provider_type_desc, ⁵​state_cd, ⁶​first_name, ⁷​mdl_name, ⁸​last_name,
#> #   ⁹​org_name
…
