Search the National Library of Medicine's ICD-10-CM API — provider_icd10 • provider
…
# Returns the two ICD-10-CM codes associated with pleurisy.
provider_icd10(term = "pleurisy")
#> # A tibble: 2 × 2
#>   icd_10_cm_code icd_10_cm_term      
#>   <chr>          <chr>               
#> 1 R09.1          Pleurisy            
#> 2 A15.6          Tuberculous pleurisy

# Returns first 500 "Z" codes (Z00.00 - Z46.9)
provider_icd10(code = "z", field = "code")
#> # A tibble: 500 × 2
#>    icd_10_cm_code icd_10_cm_term                                                
#>    <chr>          <chr>                                                         
#>  1 Z00.00         Encounter for general adult medical examination without abnor…
#>  2 Z00.01         Encounter for general adult medical examination with abnormal…
#>  3 Z00.110        Health examination for newborn under 8 days old               
#>  4 Z00.111        Health examination for newborn 8 to 28 days old               
#>  5 Z00.121        Encounter for routine child health examination with abnormal …
#>  6 Z00.129        Encounter for routine child health examination without abnorm…
#>  7 Z00.2          Encounter for examination for period of rapid growth in child…
#>  8 Z00.3          Encounter for examination for adolescent development state    
#>  9 Z00.5          Encounter for examination of potential donor of organ and tis…
#> 10 Z00.6          Encounter for examination for normal comparison and control i…
#> # … with 490 more rows
…
# Returns the 95 codes beginning with "Z5-"
provider_icd10(code = "z5")
#> # A tibble: 95 × 2
#>    icd_10_cm_code icd_10_cm_term                                 
#>    <chr>          <chr>                                          
#>  1 Z51.0          Encounter for antineoplastic radiation therapy 
#>  2 Z51.11         Encounter for antineoplastic chemotherapy      
#>  3 Z51.12         Encounter for antineoplastic immunotherapy     
#>  4 Z51.5          Encounter for palliative care                  
#>  5 Z51.6          Encounter for desensitization to allergens     
#>  6 Z51.81         Encounter for therapeutic drug level monitoring
#>  7 Z51.89         Encounter for other specified aftercare        
#>  8 Z52.000        Unspecified donor, whole blood                 
#>  9 Z52.001        Unspecified donor, stem cells                  
#> 10 Z52.008        Unspecified donor, other blood                 
#> # … with 85 more rows
…
