…
quality_metrics(2018:2025)
#> # A tibble: 32 × 4
#>     year category metric               mean
#>  * <int> <chr>    <chr>               <dbl>
#>  1  2018 ind      HCC Risk Score      1.84 
#>  2  2018 ind      Dual Eligible Ratio 0.288
#>  3  2018 group    HCC Risk Score      1.44 
#>  4  2018 group    Dual Eligible Ratio 0.230
#>  5  2019 ind      HCC Risk Score      1.64 
#>  6  2019 ind      Dual Eligible Ratio 0.269
#>  7  2019 group    HCC Risk Score      1.32 
#>  8  2019 group    Dual Eligible Ratio 0.216
#>  9  2020 ind      HCC Risk Score      1.57 
#> 10  2020 ind      Dual Eligible Ratio 0.261
#> # ℹ 22 more rows
```
