Quality Payment Program — quality_metrics • provider
…
quality()
#> quality Totals
#> • Rows  : 6,154,354
#> • Pages : 1,233    
#> 
#> ! No Query ❯ Returning first 10 rows.
#> 
#> # A tibble: 80 × 22
#>     year        npi state  size specialty        years patients charges services
#>  * <int>      <int> <chr> <int> <chr>            <int>    <int>   <int>    <int>
#>  1  2021 1487963492 WI     3985 Internal Medici…    10   105665  1.12e8  1253108
#>  2  2021 1417413022 VA       13 Physician Assis…     3     1148  1.76e5     1468
#>  3  2021 1598059354 WI        1 Podiatry            10      384  2.01e5     2412
#>  4  2021 1609097500 GA        4 Physical Therap…    15      126  1.50e5     4810
#>  5  2021 1780868182 TX     1678 Hospitalist         11    27358  3.32e7   303940
#>  6  2021 1932201423 MS      216 Interventional …    18    23182  1.19e7   125172
#>  7  2021 1932495876 NY      371 Nurse Practitio…    11    40417  4.69e6    73230
#>  8  2021 1619234945 LA      568 Family Practice      8    17508  1.49e7   154328
#>  9  2021 1699154567 AR      374 Physician Assis…     6    19603  1.55e7   164262
#> 10  2021 1649275769 KY      337 Physician Assis…    18    23432  1.61e7   166671
#> # ℹ 70 more rows
#> # ℹ 13 more variables: final_score <dbl>, adjustment <dbl>,
#> #   complex_bonus <dbl>, qa_score <dbl>, pi_score <dbl>, part_option <chr>,
#> #   qi_bonus <dbl>, ia_score <dbl>, cost_score <dbl>, cred <chr>,
#> #   dual_ratio <dbl>, small_bonus <dbl>, flag <chr>

quality_metrics(2018:2025)
#> # A tibble: 32 × 4
#>     year category metric               mean
#>  * <int> <chr>    <chr>               <dbl>
#>  1  2018 ind      HCC Risk Score      1.84 
#>  2  2018 ind      Dual Eligible Ratio 0.288
#>  3  2018 group    HCC Risk Score      1.44 
#>  4  2018 group    Dual Eligible Ratio 0.230
#>  5  2019 ind      HCC Risk Score      1.64 
#>  6  2019 ind      Dual Eligible Ratio 0.269
#>  7  2019 group    HCC Risk Score      1.32 
#>  8  2019 group    Dual Eligible Ratio 0.216
#>  9  2020 ind      HCC Risk Score      1.57 
#> 10  2020 ind      Dual Eligible Ratio 0.261
#> # ℹ 22 more rows
…
