…
services(count = TRUE)
#> ◼ services | 116,297,407 rows | 23,267 pages
services(npi = c(1003000423, 1003826272))
#> ✔ services returned 209 results
#> ✔ Retrieving 12 pages
#> # A tibble: 209 × 11
#>     year      npi hcpcs description  drug pos   patients services charge allowed
#>    <int>    <int> <chr> <chr>       <int> <chr>    <int>    <int>  <int>   <dbl>
#>  1  2013   1.00e9 Q2038 Influenza …     1 O           32       32     16  11.8  
#>  2  2014   1.00e9 Q2038 Influenza …     1 O           26       26     16  11.3  
#>  3  2015   1.00e9 Q2038 Influenza …     1 O           40       42     16  11.8  
#>  4  2017   1.00e9 Q2035 Influenza …     1 O           22       22     20  17.3  
#>  5  2023   1.00e9 Q0138 Injection,…     1 O           66    55080      4   0.495
#>  6  2024   1.00e9 Q0138 Injection,…     1 O           28    24481      4   0.350
#>  7  2013   1.00e9 Q0091 Screening …     0 O           20       20     40  39.6  
#>  8  2014   1.00e9 Q0091 Screening …     0 O           13       13     40  39.2  
#>  9  2015   1.00e9 Q0091 Screening …     0 O           14       14     40  39.2  
#> 10  2016   1.00e9 Q0091 Screening …     0 O           20       20     40  39.2  
#> # ℹ 199 more rows
#> # ℹ 1 more variable: payment <dbl>

geography(count = TRUE)
#> ◼ geography | 3,228,031 rows | 650 pages
geography(hcpcs = 99215)
#> ✔ geography returned 1,378 results
#> ✔ Retrieving 12 pages
#> # A tibble: 1,378 × 13
#>     year level   state hcpcs description  drug pos   providers patients services
#>    <int> <chr>   <chr> <chr> <chr>       <int> <chr>     <int>    <int>    <int>
#>  1  2024 Nation… NA    99215 Establishe…     0 F        101163  1259226  2595818
#>  2  2024 Nation… NA    99215 Establishe…     0 O        340863  5280156 10326407
#>  3  2023 Nation… NA    99215 Establishe…     0 F         97208  1186849  2432569
#>  4  2023 Nation… NA    99215 Establishe…     0 O        320488  5098798  9710835
#>  5  2022 Nation… NA    99215 Establishe…     0 F        101817  1133234  2249809
#>  6  2022 Nation… NA    99215 Establishe…     0 O        306692  4914072  9078994
#>  7  2021 Nation… NA    99215 Establishe…     0 F         98767  1089127  2132747
#>  8  2021 Nation… NA    99215 Establishe…     0 O        300443  4848612  8763759
#>  9  2020 Nation… NA    99215 Establishe…     0 F         89793   873298  1582440
#> 10  2020 Nation… NA    99215 Establishe…     0 O        259521  4150032  7103762
#> # ℹ 1,368 more rows
#> # ℹ 3 more variables: charge <dbl>, allowed <dbl>, payment <dbl>
```
