CMS Open Payments API • provider
…
Examples

op1 <- open_payments(covered_recipient_npi = "1043218118", year = 2021)

op1 |> dplyr::mutate(dplyr::across(tidyselect::where(is.character), ~dplyr::na_if(., "")),
                     dplyr::across(tidyselect::where(is.character), ~dplyr::na_if(., "N/A")),
                     dplyr::across(dplyr::contains("date"), ~parsedate::parse_date(.)),
                     dplyr::across(dplyr::contains("dollars"), ~as.numeric(.))) |> 
  tidyr::pack(teaching_hospital = dplyr::contains("teaching_hospital"),
              covered_recipient_primary_type = dplyr::contains("covered_recipient_primary_type"),
              covered_recipient_specialty = dplyr::contains("covered_recipient_specialty"),
              covered_recipient_license_state_code = dplyr::contains("covered_recipient_license_state_code"),
              publication_delay_dispute = c(delay_in_publication_indicator, dispute_status_for_publication))
#> # A tibble: 92 × 75
#>    record_number recor…¹ progr…² chang…³ cover…⁴ cover…⁵ cover…⁶ cover…⁷ cover…⁸
#>    <chr>         <chr>   <chr>   <chr>   <chr>   <chr>   <chr>   <chr>   <chr>  
#>  1 1             754966… 2021    UNCHAN… Covere… 92058   104321… Ahad    NA     
#>  2 692021        787838… 2021    UNCHAN… Covere… 92058   104321… AHAD    NA     
#>  3 4385936       797168… 2021    UNCHAN… Covere… 92058   104321… AHAD    NA     
#>  4 4385946       797168… 2021    UNCHAN… Covere… 92058   104321… AHAD    NA     
#>  5 4385951       797168… 2021    UNCHAN… Covere… 92058   104321… AHAD    NA     
#>  6 4385956       797168… 2021    UNCHAN… Covere… 92058   104321… AHAD    NA     
#>  7 4579206       799201… 2021    UNCHAN… Covere… 92058   104321… AHAD    NA     
#>  8 4579226       799201… 2021    UNCHAN… Covere… 92058   104321… AHAD    NA     
#>  9 4624246       797710… 2021    UNCHAN… Covere… 92058   104321… AHAD    NA     
#> 10 4766366       797773… 2021    UNCHAN… Covere… 92058   104321… AHAD    NA     
#> # … with 82 more rows, 66 more variables: covered_recipient_last_name <chr>,
#> #   covered_recipient_name_suffix <chr>,
#> #   recipient_primary_business_street_address_line1 <chr>,
#> #   recipient_primary_business_street_address_line2 <chr>,
#> #   recipient_city <chr>, recipient_state <chr>, recipient_zip_code <chr>,
#> #   recipient_country <chr>, recipient_province <chr>,
#> #   recipient_postal_code <chr>, …
…
op2_packed |> tidyr::unpack(cols = covered_recipient)
#> # A tibble: 73 × 43
#>    record_…¹ recor…² progr…³ chang…⁴ total…⁵ date_of_payment     numbe…⁶ form_…⁷
#>    <chr>     <chr>   <chr>   <chr>     <dbl> <dttm>              <chr>   <chr>  
#>  1 2367581   728240… 2020    UNCHAN…    24.8 2020-05-07 00:00:00 1       Cash o…
#>  2 2367586   728240… 2020    UNCHAN…    24.2 2020-10-01 00:00:00 1       Cash o…
#>  3 2367591   728240… 2020    UNCHAN…    17.8 2020-01-24 00:00:00 1       Cash o…
#>  4 2367596   728240… 2020    UNCHAN…    17.4 2020-12-15 00:00:00 1       Cash o…
#>  5 2367601   728240… 2020    UNCHAN…    15.8 2020-01-13 00:00:00 1       Cash o…
#>  6 3289406   723513… 2020    UNCHAN…  3750   2020-02-12 00:00:00 1       Cash o…
#>  7 3289411   723513… 2020    UNCHAN…   139.  2020-01-30 00:00:00 1       In-kin…
#>  8 3289416   723513… 2020    UNCHAN…    16.7 2020-02-05 00:00:00 1       In-kin…
#>  9 3289421   723513… 2020    UNCHAN…   109.  2020-02-06 00:00:00 1       In-kin…
#> 10 3289426   723513… 2020    UNCHAN…   351.  2020-02-12 00:00:00 1       In-kin…
#> # … with 63 more rows, 35 more variables:
#> #   nature_of_payment_or_transfer_of_value <chr>,
#> #   name_of_third_party_entity_receiving_payment_or_transfer_of_ccfc <chr>,
#> #   contextual_information <chr>, payment_publication_date <dttm>,
#> #   teaching_hospital <tibble[,3]>, covered_recipient_type <chr>,
#> #   covered_recipient_profile_id <chr>, covered_recipient_npi <chr>,
#> #   covered_recipient_first_name <chr>, covered_recipient_middle_name <chr>, …

op3 <- open_payments(covered_recipient_npi = "1043218118", year = 2019)

op3 |> dplyr::mutate(dplyr::across(tidyselect::where(is.character), ~dplyr::na_if(., "")),
                     dplyr::across(tidyselect::where(is.character), ~dplyr::na_if(., "N/A")),
                     dplyr::across(dplyr::contains("date"), ~parsedate::parse_date(.)),
                     dplyr::across(dplyr::contains("dollars"), ~as.numeric(.))) |> 
  tidyr::pack(teaching_hospital = dplyr::contains("teaching_hospital"),
              covered_recipient_primary_type = dplyr::contains("covered_recipient_primary_type"),
              covered_recipient_specialty = dplyr::contains("covered_recipient_specialty"),
              covered_recipient_license_state_code = dplyr::contains("covered_recipient_license_state_code"),
              publication_delay_dispute = c(delay_in_publication_indicator, dispute_status_for_publication))
#> # A tibble: 68 × 75
#>    record_number recor…¹ progr…² chang…³ cover…⁴ cover…⁵ cover…⁶ cover…⁷ cover…⁸
#>    <chr>         <chr>   <chr>   <chr>   <chr>   <chr>   <chr>   <chr>   <chr>  
#>  1 14968401      684452… 2019    UNCHAN… Covere… 92058   104321… AHAD    NA     
#>  2 14968416      684452… 2019    UNCHAN… Covere… 92058   104321… AHAD    NA     
#>  3 14968421      684452… 2019    UNCHAN… Covere… 92058   104321… AHAD    NA     
#>  4 14968426      684452… 2019    UNCHAN… Covere… 92058   104321… AHAD    NA     
#>  5 14968431      684452… 2019    UNCHAN… Covere… 92058   104321… AHAD    NA     
#>  6 14968436      684452… 2019    UNCHAN… Covere… 92058   104321… AHAD    NA     
#>  7 14968441      684452… 2019    UNCHAN… Covere… 92058   104321… AHAD    NA     
#>  8 14968446      684452… 2019    UNCHAN… Covere… 92058   104321… AHAD    NA     
#>  9 14968451      684452… 2019    UNCHAN… Covere… 92058   104321… AHAD    NA     
#> 10 14968456      684452… 2019    UNCHAN… Covere… 92058   104321… AHAD    NA     
#> # … with 58 more rows, 66 more variables: covered_recipient_last_name <chr>,
#> #   covered_recipient_name_suffix <chr>,
#> #   recipient_primary_business_street_address_line1 <chr>,
#> #   recipient_primary_business_street_address_line2 <chr>,
#> #   recipient_city <chr>, recipient_state <chr>, recipient_zip_code <chr>,
#> #   recipient_country <chr>, recipient_province <chr>,
#> #   recipient_postal_code <chr>, …

open_payments(recipient_city = "Jacksonville", recipient_state = "FL")
#> # A tibble: 500 × 92
#>    record_number recor…¹ progr…² chang…³ cover…⁴ teach…⁵ teach…⁶ teach…⁷ cover…⁸
#>    <chr>         <chr>   <chr>   <chr>   <chr>   <chr>   <chr>   <chr>   <chr>  
#>  1 5641          760884… 2021    UNCHAN… Covere… NA      NA      NA      278630 
#>  2 10276         754276… 2021    UNCHAN… Covere… NA      NA      NA      234757 
#>  3 14066         765543… 2021    UNCHAN… Covere… NA      NA      NA      236778 
#>  4 20421         764406… 2021    UNCHAN… Covere… NA      NA      NA      352694 
#>  5 20431         764406… 2021    UNCHAN… Covere… NA      NA      NA      352694 
#>  6 20436         764406… 2021    UNCHAN… Covere… NA      NA      NA      352694 
#>  7 20441         764406… 2021    UNCHAN… Covere… NA      NA      NA      352694 
#>  8 20446         764406… 2021    UNCHAN… Covere… NA      NA      NA      352694 
#>  9 20451         764406… 2021    UNCHAN… Covere… NA      NA      NA      352694 
#> 10 20456         764406… 2021    UNCHAN… Covere… NA      NA      NA      352694 
#> # … with 490 more rows, 83 more variables: covered_recipient_npi <chr>,
#> #   covered_recipient_first_name <chr>, covered_recipient_middle_name <chr>,
#> #   covered_recipient_last_name <chr>, covered_recipient_name_suffix <chr>,
#> #   recipient_primary_business_street_address_line1 <chr>,
#> #   recipient_primary_business_street_address_line2 <chr>,
#> #   recipient_city <chr>, recipient_state <chr>, recipient_zip_code <chr>,
#> #   recipient_country <chr>, recipient_province <chr>, …

open_payments(applicable_manufacturer_or_applicable_gpo_making_payment_id = "100000151589")
#> # A tibble: 500 × 92
#>    record_number recor…¹ progr…² chang…³ cover…⁴ teach…⁵ teach…⁶ teach…⁷ cover…⁸
#>    <chr>         <chr>   <chr>   <chr>   <chr>   <chr>   <chr>   <chr>   <chr>  
#>  1 55248441      851851… 2021    UNCHAN… Covere… NA      NA      NA      131198 
#>  2 55248451      851851… 2021    UNCHAN… Covere… NA      NA      NA      4221736
#>  3 55248461      851851… 2021    UNCHAN… Covere… NA      NA      NA      346385 
#>  4 55248471      851851… 2021    UNCHAN… Covere… NA      NA      NA      346385 
#>  5 55248486      851851… 2021    UNCHAN… Covere… NA      NA      NA      346385 
#>  6 55248496      851851… 2021    UNCHAN… Covere… NA      NA      NA      346385 
#>  7 55248501      851851… 2021    UNCHAN… Covere… NA      NA      NA      346385 
#>  8 55248511      851851… 2021    UNCHAN… Covere… NA      NA      NA      346385 
#>  9 55248521      851851… 2021    UNCHAN… Covere… NA      NA      NA      168577 
#> 10 55248536      851851… 2021    UNCHAN… Covere… NA      NA      NA      168577 
#> # … with 490 more rows, 83 more variables: covered_recipient_npi <chr>,
#> #   covered_recipient_first_name <chr>, covered_recipient_middle_name <chr>,
#> #   covered_recipient_last_name <chr>, covered_recipient_name_suffix <chr>,
#> #   recipient_primary_business_street_address_line1 <chr>,
#> #   recipient_primary_business_street_address_line2 <chr>,
#> #   recipient_city <chr>, recipient_state <chr>, recipient_zip_code <chr>,
#> #   recipient_country <chr>, recipient_province <chr>, …

open_payments(applicable_manufacturer_or_applicable_gpo_making_payment_id = "100000151589", year = 2020)
#> # A tibble: 500 × 92
#>    record_number recor…¹ progr…² chang…³ cover…⁴ teach…⁵ teach…⁶ teach…⁷ cover…⁸
#>    <chr>         <chr>   <chr>   <chr>   <chr>   <chr>   <chr>   <chr>   <chr>  
#>  1 2459791       728277… 2020    UNCHAN… Covere… NA      NA      NA      583485 
#>  2 2460731       728277… 2020    UNCHAN… Covere… NA      NA      NA      141692 
#>  3 2359741       728237… 2020    UNCHAN… Covere… NA      NA      NA      962954 
#>  4 2416876       728260… 2020    UNCHAN… Covere… NA      NA      NA      1319821
#>  5 2389276       728249… 2020    UNCHAN… Covere… NA      NA      NA      68761  
#>  6 2359756       728237… 2020    UNCHAN… Covere… NA      NA      NA      279929 
#>  7 2444106       728271… 2020    UNCHAN… Covere… NA      NA      NA      1337900
#>  8 2394856       728251… 2020    UNCHAN… Covere… NA      NA      NA      269961 
#>  9 2362446       728238… 2020    UNCHAN… Covere… NA      NA      NA      28253  
#> 10 2367806       728240… 2020    UNCHAN… Covere… NA      NA      NA      243626 
#> # … with 490 more rows, 83 more variables: covered_recipient_npi <chr>,
#> #   covered_recipient_first_name <chr>, covered_recipient_middle_name <chr>,
#> #   covered_recipient_last_name <chr>, covered_recipient_name_suffix <chr>,
#> #   recipient_primary_business_street_address_line1 <chr>,
#> #   recipient_primary_business_street_address_line2 <chr>,
#> #   recipient_city <chr>, recipient_state <chr>, recipient_zip_code <chr>,
#> #   recipient_country <chr>, recipient_province <chr>, …

open_payments(applicable_manufacturer_or_applicable_gpo_making_payment_id = "100000151589", year = 2019)
#> # A tibble: 500 × 92
#>    record_number recor…¹ progr…² chang…³ cover…⁴ teach…⁵ teach…⁶ teach…⁷ cover…⁸
#>    <chr>         <chr>   <chr>   <chr>   <chr>   <chr>   <chr>   <chr>   <chr>  
#>  1 45257226      705033… 2019    UNCHAN… Covere… NA      NA      NA      20507  
#>  2 45257196      705175… 2019    UNCHAN… Covere… NA      NA      NA      91550  
#>  3 45257221      705186… 2019    UNCHAN… Covere… NA      NA      NA      91550  
#>  4 45257211      704986… 2019    UNCHAN… Covere… NA      NA      NA      184244 
#>  5 45257191      704993… 2019    UNCHAN… Covere… NA      NA      NA      187783 
#>  6 45257186      705040… 2019    UNCHAN… Covere… NA      NA      NA      18987  
#>  7 45257216      705044… 2019    UNCHAN… Covere… NA      NA      NA      1388803
#>  8 45257181      705041… 2019    UNCHAN… Covere… NA      NA      NA      26501  
#>  9 45257206      705175… 2019    UNCHAN… Covere… NA      NA      NA      414454 
#> 10 45257201      705074… 2019    UNCHAN… Covere… NA      NA      NA      22214  
#> # … with 490 more rows, 83 more variables: covered_recipient_npi <chr>,
#> #   covered_recipient_first_name <chr>, covered_recipient_middle_name <chr>,
#> #   covered_recipient_last_name <chr>, covered_recipient_name_suffix <chr>,
#> #   recipient_primary_business_street_address_line1 <chr>,
#> #   recipient_primary_business_street_address_line2 <chr>,
#> #   recipient_city <chr>, recipient_state <chr>, recipient_zip_code <chr>,
#> #   recipient_country <chr>, recipient_province <chr>, …
…
