Doctors and Clinicians • provider
…
doctors_and_clinicians(school = "NEW YORK UNIVERSITY SCHOOL OF MEDICINE", 
                       grad_year = 2000, 
                       state = "FL")
#> # A tibble: 79 × 25
#>    npi        pac_id    enroll_id first_name middle_name last_name suffix gender
#>    <chr>      <chr>     <chr>     <chr>      <chr>       <chr>     <chr>  <chr> 
#>  1 1043312556 83250900… I2010011… NICOLE     NA          IOVINE    NA     F     
#>  2 1043312556 83250900… I2010011… NICOLE     NA          IOVINE    NA     F     
#>  3 1043312556 83250900… I2010011… NICOLE     NA          IOVINE    NA     F     
#>  4 1043312556 83250900… I2010011… NICOLE     NA          IOVINE    NA     F     
#>  5 1043312556 83250900… I2010011… NICOLE     NA          IOVINE    NA     F     
#>  6 1043312556 83250900… I2010011… NICOLE     NA          IOVINE    NA     F     
#>  7 1043312556 83250900… I2010011… NICOLE     NA          IOVINE    NA     F     
#>  8 1073549895 24664809… I2007112… ALAN       B           BENNIE    NA     M     
#>  9 1073549895 24664809… I2007112… ALAN       B           BENNIE    NA     M     
#> 10 1073575403 86280744… I2006101… DANIEL     J           GASSERT   NA     M     
#> # ℹ 69 more rows
#> # ℹ 17 more variables: credential <chr>, school <chr>, grad_year <int>,
#> #   grad_duration <Duration>, specialty <chr>, specialty_sec <chr>,
#> #   telehealth <lgl>, org_name <chr>, org_pac_id <chr>, org_members <int>,
#> #   address <chr>, city <chr>, state <chr>, zipcode <chr>, phone <chr>,
#> #   ind_assn <chr>, group_assn <chr>

c(0, 501) |> 
  purrr::map(\(x) doctors_and_clinicians(state = "GA", city = "Valdosta", offset = x)) |> 
  purrr::list_rbind()
#> # A tibble: 728 × 25
#>    npi        pac_id    enroll_id first_name middle_name last_name suffix gender
#>    <chr>      <chr>     <chr>     <chr>      <chr>       <chr>     <chr>  <chr> 
#>  1 1003038720 06483608… I2007121… BARBARA    F           FRIER     NA     F     
#>  2 1003125238 12545244… I2015110… JEREMY     STEPHEN     COLYER    NA     M     
#>  3 1003125238 12545244… I2015110… JEREMY     STEPHEN     COLYER    NA     M     
#>  4 1003198268 18505427… I2012112… COLE       NA          BURGESS   NA     M     
#>  5 1003287533 60021732… I2017112… KACIE      PARRISH     JOHNSON   NA     F     
#>  6 1003445297 17597708… I2021111… VICKI      NA          WETTER    NA     F     
#>  7 1003816935 06483969… I2010092… MARY       NA          FULP-PYE  NA     F     
#>  8 1013250612 21636573… I2013102… HEATH      NA          FARMER    NA     M     
#>  9 1013250612 21636573… I2013102… HEATH      NA          FARMER    NA     M     
#> 10 1013294966 63050682… I2014111… LYNDI      NA          FARNAM    NA     F     
#> # ℹ 718 more rows
#> # ℹ 17 more variables: credential <chr>, school <chr>, grad_year <int>,
#> #   grad_duration <Duration>, specialty <chr>, specialty_sec <chr>,
#> #   telehealth <lgl>, org_name <chr>, org_pac_id <chr>, org_members <int>,
#> #   address <chr>, city <chr>, state <chr>, zipcode <chr>, phone <chr>,
#> #   ind_assn <chr>, group_assn <chr>
…
