Facility Affiliations • provider
…
Search Examples

facility_affiliations(npi = 1003019563)
#> # A tibble: 4 × 9
#>   npi        pac_id     first_name middle_name last_name suffix facility_type
#>   <chr>      <chr>      <chr>      <chr>       <chr>     <chr>  <chr>        
#> 1 1003019563 4688707060 JOHN       JOSEPH      FRANK     NA     Hospital     
#> 2 1003019563 4688707060 JOHN       JOSEPH      FRANK     NA     Hospital     
#> 3 1003019563 4688707060 JOHN       JOSEPH      FRANK     NA     Hospital     
#> 4 1003019563 4688707060 JOHN       JOSEPH      FRANK     NA     Hospital     
#> # ℹ 2 more variables: facility_ccn <chr>, parent_ccn <chr>

facility_affiliations(facility_ccn = "060004")
#> # A tibble: 182 × 9
#>    npi        pac_id     first_name middle_name last_name   suffix facility_type
#>    <chr>      <chr>      <chr>      <chr>       <chr>       <chr>  <chr>        
#>  1 1003002890 6002953973 DANIEL     RICHARD     HAMMAN      NA     Hospital     
#>  2 1003019563 4688707060 JOHN       JOSEPH      FRANK       NA     Hospital     
#>  3 1003045022 5890926059 ARTHUR     H           DONAHUE     NA     Hospital     
#>  4 1003105636 6507182847 JAMES      CHARLES     HIGHAM KES… NA     Hospital     
#>  5 1003234162 4284940248 MATTHEW    NA          MCDIARMID   NA     Hospital     
#>  6 1003845249 1254326994 GARETH     R           WEINER      NA     Hospital     
#>  7 1013069566 7810096328 AMITY      D           HELZER      NA     Hospital     
#>  8 1013115989 4385891712 ASHLEY     L           PYLE        NA     Hospital     
#>  9 1013979566 1557374014 FIRAS      NA          MUWALLA     NA     Hospital     
#> 10 1023261963 2860687431 CHAD       MICHAEL     LUCCI       NA     Hospital     
#> # ℹ 172 more rows
#> # ℹ 2 more variables: facility_ccn <chr>, parent_ccn <chr>
…
