Healthcare Providers: Why Geocode? • provider
…
orgs_add |> 
  dplyr::filter(is.na(latitude))
#> # A tibble: 65 × 13
#>    addr          latitude longitude place_id licence osm_type osm_id boundingbox
#>    <chr>            <dbl>     <dbl>    <int> <chr>   <chr>     <dbl> <list>     
#>  1 1920 HAZELBR…       NA        NA       NA NA      NA           NA <NULL>     
#>  2 6105 PEACHTR…       NA        NA       NA NA      NA           NA <NULL>     
#>  3 14244 HIGHWA…       NA        NA       NA NA      NA           NA <NULL>     
#>  4 3621 VININGS…       NA        NA       NA NA      NA           NA <NULL>     
#>  5 5445 MERIDIA…       NA        NA       NA NA      NA           NA <NULL>     
#>  6 5445 MERIDIA…       NA        NA       NA NA      NA           NA <NULL>     
#>  7 5445 MERIDIA…       NA        NA       NA NA      NA           NA <NULL>     
#>  8 5445 MERIDIA…       NA        NA       NA NA      NA           NA <NULL>     
#>  9 5445 MERIDIA…       NA        NA       NA NA      NA           NA <NULL>     
#> 10 5445 MERIDIA…       NA        NA       NA NA      NA           NA <NULL>     
#> # ℹ 55 more rows
#> # ℹ 5 more variables: display_name <chr>, class <chr>, type <chr>,
#> #   importance <dbl>, icon <chr>
…
