Mapping Providers • provider
…
library(provider)

Retrieve Addresses of all RHCs in Georgia

rhcs <- providers(state = "GA", specialty_code = "00-17") |> 
  dplyr::distinct(npi) |> 
  dplyr::pull(npi) |> 
  purrr::map(\(x) nppes(npi = x)) |>
  purrr::list_rbind() |> 
  dplyr::select(npi, organization, purpose, 
                on_org_name, address:zip, pr_purpose:pr_zip) |> 
  dplyr::distinct()
rhcs

#> # A tibble: 94 × 13
#>    npi     organization purpose on_org_name address city  state zip   pr_purpose
#>    <chr>   <chr>        <fct>   <chr>       <chr>   <chr> <ord> <chr> <fct>     
#>  1 199271… TMC HARALSO… Practi… PRIMARY CA… 204 AL… BREM… GA    3011… NA        
#>  2 149776… TMC TALLAPO… Practi… NA          25 W L… TALL… GA    3017… NA        
#>  3 128570… HIAWASSEE F… Practi… NA          56 HOS… HIAW… GA    3054… NA        
#>  4 198263… TMC WEST CA… Practi… WEST CARRO… 1125 E… BOWD… GA    3010… NA        
#>  5 182101… BACON COUNT… Practi… NA          204 E … ALMA  GA    3151… NA        
#>  6 175033… BOWDON- MT.… Practi… NA          41 WEL… WHIT… GA    3018… NA        
#>  7 136647… HOSPITAL AU… Practi… THE CAMILL… 25 PER… CAMI… GA    3173… NA        
#>  8 189186… THE MEDICAL… Practi… NA          109 CO… ELBE… GA    3063… NA        
#>  9 157868… UNION COUNT… Practi… BLUE MOUNT… 178 A … BLAI… GA    3051… Location  
#> 10 157868… UNION COUNT… Practi… UNION GENE… 178 A … BLAI… GA    3051… Location  
#> # ℹ 84 more rows
#> # ℹ 4 more variables: pr_address <chr>, pr_city <chr>, pr_state <ord>,
#> #   pr_zip <chr>
…
rhcs <- dplyr::bind_rows(org, sub) |> 
  dplyr::distinct() |> 
  add_counties(state, 
               zip, 
               add_fips = TRUE,
               add_geo = TRUE) |> 
  tidyr::unite("address", 
               address:state, 
               remove = TRUE, 
               sep = " ")
rhcs

#> # A tibble: 91 × 14
#>    npi        organization purpose address zip   .county   lat   lng bounds_west
#>    <chr>      <chr>        <fct>   <chr>   <chr> <chr>   <dbl> <dbl>       <dbl>
#>  1 1992710610 TMC HARALSO… Practi… 204 AL… 30110 Harals…  33.7 -85.2       -85.2
#>  2 1497760243 TMC TALLAPO… Practi… 25 W L… 30176 Harals…  33.8 -85.3       -85.4
#>  3 1285706879 HIAWASSEE F… Practi… 56 HOS… 30546 Towns    34.9 -83.7       -83.8
#>  4 1982631321 TMC WEST CA… Practi… 1125 E… 30108 Carroll  33.5 -85.3       -85.3
#>  5 1821017831 BACON COUNT… Practi… 204 E … 31510 Bacon    31.6 -82.5       -82.6
#>  6 1750339511 BOWDON- MT.… Practi… 41 WEL… 30185 Carroll  33.5 -84.9       -85.0
#>  7 1366472003 HOSPITAL AU… Practi… 25 PER… 31730 Mitche…  31.2 -84.3       -84.5
#>  8 1891863569 THE MEDICAL… Practi… 109 CO… 30635 Elbert   34.1 -82.8       -83.0
#>  9 1922211515 HOSPITAL AU… Practi… 259 US… 31730 Mitche…  31.2 -84.3       -84.5
#> 10 1891770764 PHOEBE WORT… Practi… 1014 W… 31791 Worth    31.5 -83.9       -84.0
#> # ℹ 81 more rows
#> # ℹ 5 more variables: bounds_east <dbl>, bounds_north <dbl>,
#> #   bounds_south <dbl>, .county_fips <chr>, geometry <list>

Filter to distinct counties for labelling

county_pts <- dplyr::distinct(rhcs, .county, .keep_all = TRUE) |> 
  dplyr::select(.county, lat, lng) |> 
  dplyr::filter(.county != "Duval")
county_pts

#> # A tibble: 53 × 3
#>    .county     lat   lng
#>    <chr>     <dbl> <dbl>
#>  1 Haralson   33.7 -85.2
#>  2 Towns      34.9 -83.7
#>  3 Carroll    33.5 -85.3
#>  4 Bacon      31.6 -82.5
#>  5 Mitchell   31.2 -84.3
#>  6 Elbert     34.1 -82.8
#>  7 Worth      31.5 -83.9
#>  8 Jefferson  32.9 -82.4
#>  9 Hancock    33.3 -83  
#> 10 Putnam     33.3 -83.3
#> # ℹ 43 more rows
…
