Hospital Enrollment • provider
…
hospital_enrollment(enroll_state = "GA")
#> # A tibble: 214 × 36
#>    npi        enroll_id  enroll_state specialty_code specialty_desc facility_ccn
#>    <chr>      <chr>      <chr>        <chr>          <chr>          <chr>       
#>  1 1588664007 O20020826… GA           00-09          PART A PROVID… 112011      
#>  2 1376574277 O20021108… GA           00-09          PART A PROVID… 110005      
#>  3 1912951963 O20030515… GA           00-09          PART A PROVID… 110177      
#>  4 1063406684 O20030925… GA           00-09          PART A PROVID… 110043      
#>  5 1447252044 O20040406… GA           00-09          PART A PROVID… 112016      
#>  6 1679543672 O20040513… GA           00-09          PART A PROVID… 114008      
#>  7 1508810565 O20040823… GA           00-09          PART A PROVID… 110168      
#>  8 1922178789 O20041013… GA           00-09          PART A PROVID… 113301      
#>  9 1194722389 O20041103… GA           00-09          PART A PROVID… 112013      
#> 10 1811940976 O20041109… GA           00-09          PART A PROVID… 110201      
#> # ℹ 204 more rows
#> # ℹ 30 more variables: pac_id_org <chr>, org_name <chr>,
#> #   doing_business_as <chr>, incorp_date <date>, incorp_duration <Duration>,
#> #   incorp_state <chr>, org_structure <chr>, org_other <chr>, address <chr>,
#> #   city <chr>, state <chr>, zipcode <int>, location_type <chr>,
#> #   location_other <chr>, multiple_npis <lgl>, proprietary_nonprofit <lgl>,
#> #   sg_general <lgl>, sg_acute_care <lgl>, sg_alcohol_drug <lgl>, …
…
