Linking Providers • provider
…
#> 6 ELIZABE… NA    NA     NA    NY    12-70     PART B S… 1.05e9     1 3577… O200…
#> 7 ELIZABE… NA    NA     NA    NY    00-85     PART A P… 1.41e9     0 3577… O202…
#> 8 ELIZABE… NA    NA     NA    NY    00-85     PART A P… 1.89e9     1 3577… O201…
hospitals(org_name = "Elizabethtown Community Hospital")
#> ✔ hospitals returned 2 results.
#> # A tibble: 2 × 18
#>   org_name     org_dba enid     npi multi ccn   pac   inc_date   org_type status
#> * <chr>        <chr>   <chr>  <int> <int> <chr> <chr> <date>     <chr>    <chr> 
#> 1 ELIZABETHTO… NA      O201… 1.89e9     1 3313… 3577… 1926-05-08 CORPORA… Non-P…
#> 2 ELIZABETHTO… NA      O202… 1.41e9     0 33Z3… 3577… 1926-05-08 CORPORA… Non-P…
#> # ℹ 8 more variables: address <chr>, city <chr>, state <chr>, zip <chr>,
#> #   loc_type <chr>, reh_date <date>, prov_type <chr>, sub_group <chr>
clinicians(org_name = "Elizabethtown Community Hospital")
#> ✔ clinicians returned 77 results.
#> # A tibble: 77 × 18
#>    first middle last  gender cred  school grad_year specialty    npi pac   enid 
#>    <chr> <chr>  <chr> <chr>  <chr> <chr>      <int> <chr>      <int> <chr> <chr>
#>  1 GAVIN L      NOBLE M      MD    STATE…      1999 CARDIOVA… 1.75e9 6002… I202…
#>  2 JOSE… NA     PEKA… M      MD    GEISE…      1999 DIAGNOST… 1.37e9 3274… I200…
#>  3 DMIT… G      AKSE… M      MD    STATE…      2007 DIAGNOST… 1.63e9 4385… I201…
#>  4 ROBE… NA     PERC… M      MD    NEW Y…      2009 INTERVEN… 1.36e9 5991… I202…
#>  5 BENJ… NA     LANGE M      MD    HARVA…      2009 DIAGNOST… 1.77e9 2365… I201…
#>  6 BENJ… NA     BAMF… M      MD    UNIVE…      1992 DIAGNOST… 1.15e9 9638… I201…
#>  7 JOSH… NA     WARN… F      NP    OTHER       2023 NURSE PR… 1.76e9 8123… I202…
#>  8 EMILY NA     POLO… F      NP    OTHER       2014 NURSE PR… 1.92e9 8729… I202…
#>  9 DAGM… NA     HOEG… F      MD    OTHER       1996 DIAGNOST… 1.87e9 4880… I200…
#> 10 LUCY  NA     LANE  F      MD    OTHER       2012 DIAGNOST… 1.03e9 7911… I201…
#> # ℹ 67 more rows
#> # ℹ 7 more variables: org_name <chr>, org_pac <chr>, members <int>,
#> #   address <chr>, city <chr>, state <chr>, zip <chr>
reassignments(org_name = "Elizabethtown Community Hospital")
#> ✔ reassignments returned 398 results.
#> # A tibble: 398 × 13
#>    first   last  state specialty employers    npi pac   enid  org_name employees
#>    <chr>   <chr> <chr> <chr>         <int>  <int> <chr> <chr> <chr>        <int>
#>  1 Nathal… Abis… NY    Family P…         1 1.34e9 5294… I202… Elizabe…       202
#>  2 Jose    Acos… NY    Medical …         5 1.01e9 5890… I201… Elizabe…       202
#>  3 Jose    Acos… NY    Medical …         5 1.01e9 5890… I201… Elizabe…       141
#>  4 Dmitriy Akse… NY    Diagnost…         4 1.63e9 4385… I202… Elizabe…       202
#>  5 Dmitriy Akse… VT    Diagnost…         6 1.63e9 4385… I201… Elizabe…        33
#>  6 Vlada   Alex… NY    Pathology         3 1.95e9 5092… I201… Elizabe…       202
#>  7 Anel    Alex… NY    Emergenc…         6 1.72e9 3678… I201… Elizabe…       202
#>  8 Anel    Alex… NY    Emergenc…         6 1.72e9 3678… I201… Elizabe…       141
#>  9 Loren   Allen NY    Nurse Pr…         2 1.77e9 1658… I201… Elizabe…       202
#> 10 Nichol… Also… NY    Emergenc…         5 1.24e9 8628… I202… Elizabe…       202
#> # ℹ 388 more rows
#> # ℹ 3 more variables: org_pac <chr>, org_enid <chr>, org_state <chr>
…
ccn <- affiliations(facility_ccn = 331302)
#> ✔ affiliations returned 334 results.
list(
  organization = as.data.frame(t(unique(ccn[6:8]))),
  individual = unique(ccn[1:5]))
#> $organization
#>                  V1
#> prov_type  Hospital
#> prov_ccn     331302
#> parent_ccn     <NA>
#> 
#> $individual
#> # A tibble: 334 × 5
#>    first   middle  last                  npi pac       
#>    <chr>   <chr>   <chr>               <int> <chr>     
#>  1 STACI   L       CARTER-KELLY   1003029125 6204824378
#>  2 DYLAN   A       ESTES          1003278144 6608167523
#>  3 ANA     MARIELA MORALES MEJIA  1003421496 6103287404
#>  4 ARMIN   NA      AFSAR KESHMIRI 1003815184 4082693676
#>  5 LAURA   A       GREENE         1003845272 1759384035
#>  6 DEBORAH M       KAMPSCHROR     1013141860 8022069558
#>  7 NAROD   NA      VASSILIAN      1013539584 9133544109
#>  8 EMILY   NA      TRIPLETT       1013595560 3375947401
#>  9 BARDIA  NA      BARIMANI       1013793736 9436503646
#> 10 JOSE    M       ACOSTAMADIEDO  1013910256 5890719371
#> # ℹ 324 more rows
…
