Linking Providers • provider
…
The Hospital Enrollment API includes only Medicare
Part A (hospital) providers, so we only get two rows back, but those
include a new data point: two facility CCNs. Plugging those into the
Facility Affiliations API, we can retrieve information
on the individual providers practicing at this hospital. First, the
all-numeric CCN (331302):

facility_affiliations(facility_ccn = 331302)

#> # A tibble: 174 × 8
#>    npi        pac_id_ind first_name middle_name last_name   suffix facility_type
#>    <chr>      <chr>      <chr>      <chr>       <chr>       <chr>  <chr>        
#>  1 1003815184 4082693676 ARMIN      NA          AFSAR KESH… NA     Hospital     
#>  2 1023076643 5698798452 JOHN       N           HENRY       NA     Hospital     
#>  3 1043245657 7810891009 MARK       K           FUNG        NA     Hospital     
#>  4 1043397656 4183764558 ANTHONY    F           TRAMONTANO  NA     Hospital     
#>  5 1043630510 2365749389 RYAN       NA          WOLFE       NA     Hospital     
#>  6 1053596122 5193802213 TANYA      JEAN        FINCH       NA     Hospital     
#>  7 1053863100 8729362207 MATTHEW    D           FARNSWORTH  NA     Hospital     
#>  8 1063592210 0042228009 ROBERT     D           PITTS       NA     Hospital     
#>  9 1073099172 0547519381 BROOKE     A           MAGGY       NA     Hospital     
#> 10 1073585055 0749217313 TODD       J           WHITMAN     NA     Hospital     
#> # ℹ 164 more rows
#> # ℹ 1 more variable: facility_ccn <chr>
…
