…
#>   org_name first middle last  state prov_type prov_desc    npi multi pac   enid 
#> * <chr>    <chr> <chr>  <chr> <chr> <chr>     <chr>      <int> <int> <chr> <chr>
#> 1 ELIZABE… NA    NA     NA    NY    12-70     PART B S… 1.05e9     1 3577… O200…
#> 2 ELIZABE… NA    NA     NA    NY    00-85     PART A P… 1.89e9     1 3577… O201…
#> 3 ELIZABE… NA    NA     NA    NY    00-85     PART A P… 1.41e9     0 3577… O202…
#> 4 ELIZABE… NA    NA     NA    CT    12-70     PART B S… 1.05e9     0 3577… O202…
#> 5 ELIZABE… NA    NA     NA    FL    12-70     PART B S… 1.05e9     0 3577… O202…
#> 6 ELIZABE… NA    NA     NA    VT    12-70     PART B S… 1.05e9     0 3577… O202…
#> 7 ELIZABE… NA    NA     NA    NH    12-70     PART B S… 1.05e9     0 3577… O202…
#> 8 ELIZABE… NA    NA     NA    CO    12-70     PART B S… 1.05e9     0 3577… O202…
hospitals(org_name = "Elizabethtown Community Hospital")
#> ✔ hospitals returned 2 results.
clinicians(org_name = "Elizabethtown Community Hospital")
#> ✔ clinicians returned 58 results.
#> # A tibble: 58 × 21
#>    first    middle last    suffix gender cred  school grad_year specialty    npi
#>  * <chr>    <chr>  <chr>   <chr>  <chr>  <chr> <chr>      <int> <chr>      <int>
#>  1 GAVIN    L      NOBLE   NA     M      MD    STATE…      1999 CARDIOVA… 1.75e9
#>  2 DMITRIY  G      AKSELR… NA     M      MD    STATE…      2007 DIAGNOST… 1.63e9
#>  3 ROBERT   NA     PERCAR… NA     M      MD    NEW Y…      2009 INTERVEN… 1.36e9
#>  4 BENJAMIN NA     LANGE   NA     M      MD    HARVA…      2009 DIAGNOST… 1.77e9
#>  5 BENJAMIN NA     BAMFORD NA     M      MD    UNIVE…      1992 DIAGNOST… 1.15e9
#>  6 JOSHUA   NA     WARNER  NA     F      NP    OTHER       2023 NURSE PR… 1.76e9
#>  7 DAGMAR   NA     HOEGEM… NA     F      MD    OTHER       1996 DIAGNOST… 1.87e9
#>  8 CARLY    J      SLEEPER NA     F      NA    ALBAN…      2012 PHYSICIA… 1.66e9
#>  9 ROB      L      DEMURO  NA     M      MD    STATE…      1996 INTERNAL… 1.80e9
#> 10 JAMES    E      EAST    NA     M      MD    OTHER       2016 DIAGNOST… 1.95e9
#> # ℹ 48 more rows
#> # ℹ 11 more variables: pac <chr>, enid <chr>, org_name <chr>, org_pac <chr>,
#> #   org_mem <int>, org_city <chr>, org_state <chr>, org_zip <chr>,
#> #   org_phone <chr>, org_add <chr>, specialty <chr>
reassignments(org_name = "Elizabethtown Community Hospital")
#> ✔ reassignments returned 370 results.
#> # A tibble: 370 × 14
#>    first   last  state specialty employers    npi pac   enid  org_name employees
#>  * <chr>   <chr> <chr> <chr>         <int>  <int> <chr> <chr> <chr>        <int>
#>  1 Nathal… Abis… NY    Family P…         1 1.34e9 5294… I202… Elizabe…       193
#>  2 Jose    Acos… NY    Medical …         5 1.01e9 5890… I201… Elizabe…       193
#>  3 Jose    Acos… NY    Medical …         5 1.01e9 5890… I201… Elizabe…       121
#>  4 Dmitriy Akse… NY    Diagnost…         4 1.63e9 4385… I202… Elizabe…       193
#>  5 Dmitriy Akse… VT    Diagnost…         6 1.63e9 4385… I201… Elizabe…        33
#>  6 Vlada   Alex… NY    Pathology         3 1.95e9 5092… I201… Elizabe…       193
#>  7 Anel    Alex… NY    Emergenc…         6 1.72e9 3678… I201… Elizabe…       193
#>  8 Anel    Alex… NY    Emergenc…         6 1.72e9 3678… I201… Elizabe…       121
#>  9 Loren   Allen NY    Nurse Pr…         2 1.77e9 1658… I201… Elizabe…       193
#> 10 Nichol… Also… NY    Emergenc…         5 1.24e9 8628… I202… Elizabe…       193
#> # ℹ 360 more rows
#> # ℹ 4 more variables: org_pac <chr>, org_enid <chr>, org_state <chr>,
#> #   rec_type <chr>
```
…
``` r

ccn <- affiliations(facility_ccn = 331302)
#> ✔ affiliations returned 206 results.
list(
  organization = as.data.frame(t(unique(ccn[7:9]))),
  individual = unique(ccn[1:6]))
#> $organization
#>                     V1
#> facility_type Hospital
#> facility_ccn    331302
#> parent_ccn        <NA>
#> 
#> $individual
#> # A tibble: 206 × 6
#>    first   last            middle suffix        npi pac       
#>    <chr>   <chr>           <chr>  <chr>       <int> <chr>     
#>  1 LAURA   GREENE          A      NA     1003845272 1759384035
#>  2 NAROD   VASSILIAN       NA     NA     1013539584 9133544109
#>  3 EMILY   TRIPLETT        NA     NA     1013595560 3375947401
#>  4 JOSE    ACOSTAMADIEDO   M      NA     1013910256 5890719371
#>  5 LINDSEY WILHELM         B      NA     1023377843 6901115278
#>  6 ANTHONY TRAMONTANO      F      NA     1043397656 4183764558
#>  7 VANESSA FIORINI FURTADO NA     NA     1043672140 7214229350
#>  8 CONOR   O'NEILL         NA     NA     1053686196 9234432576
#>  9 JOHN    YOUNG           NA     NA     1063420891 9436051687
#> 10 ROBERT  BENAK           L      NA     1063423523 3476552878
#> # ℹ 196 more rows
```
…
