Medicare Revalidation APIs • provider
…
revalidation_date(first_name = "Eric", last_name = "Byrd")
#> # A tibble: 2 × 14
#>   month      enrollmen…¹ natio…² first…³ last_…⁴ organ…⁵ enrol…⁶ enrol…⁷ provi…⁸
#>   <date>     <chr>       <chr>   <chr>   <chr>   <chr>   <chr>   <chr>   <chr>  
#> 1 2022-12-21 I200311100… 118469… Eric    Byrd    ""      NC      3       Non-DM…
#> 2 2022-12-21 I200901280… 159879… Eric    Byrd    ""      SC      3       Non-DM…
#> # … with 5 more variables: enrollment_specialty <chr>,
#> #   revalidation_due_date <chr>, adjusted_due_date <chr>,
#> #   individual_total_reassign_to <chr>, receiving_benefits_reassignment <int>,
#> #   and abbreviated variable names ¹​enrollment_id,
#> #   ²​national_provider_identifier, ³​first_name, ⁴​last_name, ⁵​organization_name,
#> #   ⁶​enrollment_state_code, ⁷​enrollment_type, ⁸​provider_type_text

revalidation_date(state = "FL", type_code = "3", specialty = "General Practice")
#> # A tibble: 1,480 × 14
#>    month      enrollme…¹ natio…² first…³ last_…⁴ organ…⁵ enrol…⁶ enrol…⁷ provi…⁸
#>    <date>     <chr>      <chr>   <chr>   <chr>   <chr>   <chr>   <chr>   <chr>  
#>  1 2022-12-21 I20031104… 118469… John    Abt     ""      FL      3       Non-DM…
#>  2 2022-12-21 I20031105… 135643… Humber… Fernan… ""      FL      3       Non-DM…
#>  3 2022-12-21 I20031105… 146749… Jorge   Santan… ""      FL      3       Non-DM…
#>  4 2022-12-21 I20031111… 110487… Marian… De La … ""      FL      3       Non-DM…
#>  5 2022-12-21 I20031204… 143720… Mohamm… Sheikh  ""      FL      3       Non-DM…
#>  6 2022-12-21 I20031209… 141706… Richard Rizzo   ""      FL      3       Non-DM…
#>  7 2022-12-21 I20031211… 168964… Rene    Casano… ""      FL      3       Non-DM…
#>  8 2022-12-21 I20031211… 126558… Maria   Montea… ""      FL      3       Non-DM…
#>  9 2022-12-21 I20031215… 161994… Ricardo Doming… ""      FL      3       Non-DM…
#> 10 2022-12-21 I20031215… 103321… Arles   Perdomo ""      FL      3       Non-DM…
#> # … with 1,470 more rows, 5 more variables: enrollment_specialty <chr>,
#> #   revalidation_due_date <chr>, adjusted_due_date <chr>,
#> #   individual_total_reassign_to <chr>, receiving_benefits_reassignment <chr>,
#> #   and abbreviated variable names ¹​enrollment_id,
#> #   ²​national_provider_identifier, ³​first_name, ⁴​last_name, ⁵​organization_name,
#> #   ⁶​enrollment_state_code, ⁷​enrollment_type, ⁸​provider_type_text
…
