Medicare Order and Referring API • provider
…
By NPI:

order_refer(npi = 1083879860)
#> # A tibble: 1 × 7
#>   npi        first_name  last_name partb hha   dme   pmd  
#>   <chr>      <chr>       <chr>     <lgl> <lgl> <lgl> <lgl>
#> 1 1083879860 CHRISTOPHER AARON     TRUE  TRUE  TRUE  TRUE

By Name, as well as filtering for certain privileges:

order_refer(last_name = "Smith", 
            partb = FALSE, 
            pmd = FALSE)
#> # A tibble: 151 × 7
#>    npi        first_name last_name partb hha   dme   pmd  
#>    <chr>      <chr>      <chr>     <lgl> <lgl> <lgl> <lgl>
#>  1 1063535672 AARON      SMITH     FALSE FALSE TRUE  FALSE
#>  2 1891210431 ALAINA     SMITH     FALSE FALSE TRUE  FALSE
#>  3 1962830570 ALESHA     SMITH     FALSE FALSE TRUE  FALSE
#>  4 1922655521 ALLISON    SMITH     FALSE FALSE TRUE  FALSE
#>  5 1942778188 ALYSSA     SMITH     FALSE FALSE TRUE  FALSE
#>  6 1467902791 AMANDA     SMITH     FALSE FALSE TRUE  FALSE
#>  7 1992203582 AMANDA     SMITH     FALSE FALSE TRUE  FALSE
#>  8 1023475761 AMY        SMITH     FALSE FALSE TRUE  FALSE
#>  9 1609219773 AMY        SMITH     FALSE FALSE TRUE  FALSE
#> 10 1063878056 ANNA       SMITH     FALSE FALSE TRUE  FALSE
#> # ℹ 141 more rows
…
