Medicare Monthly Enrollment API • provider
…
beneficiary_enrollment(level = "State", state = "GA")
#> # A tibble: 131 × 26
#>     year month     level state state_name county fips  bene_total bene_orig
#>    <int> <chr>     <chr> <chr> <chr>      <chr>  <chr>      <int>     <int>
#>  1  2013 Year      State GA    Georgia    Total  13       1412936   1039767
#>  2  2013 January   State GA    Georgia    Total  13       1389447   1030874
#>  3  2013 February  State GA    Georgia    Total  13       1392933   1031514
#>  4  2013 March     State GA    Georgia    Total  13       1397414   1033274
#>  5  2013 April     State GA    Georgia    Total  13       1400845   1040313
#>  6  2013 May       State GA    Georgia    Total  13       1404594   1038325
#>  7  2013 June      State GA    Georgia    Total  13       1409006   1038995
#>  8  2013 July      State GA    Georgia    Total  13       1414160   1039745
#>  9  2013 August    State GA    Georgia    Total  13       1419497   1041263
#> 10  2013 September State GA    Georgia    Total  13       1424687   1042737
#> # ℹ 121 more rows
#> # ℹ 17 more variables: bene_ma_oth <int>, bene_aged_total <int>,
#> #   bene_aged_esrd <int>, bene_aged_no_esrd <int>, bene_dsb_total <int>,
#> #   bene_dsb_esrd <int>, bene_dsb_no_esrd <int>, bene_ab_total <int>,
#> #   bene_ab_orig <int>, bene_ab_ma_oth <int>, bene_rx_total <int>,
#> #   bene_rx_pdp <int>, bene_rx_mapd <int>, bene_rx_elig <int>,
#> #   bene_rx_full <int>, bene_rx_part <int>, bene_rx_none <int>

beneficiary_enrollment(level = "County", state = "GA", county = "Lowndes")
#> # A tibble: 131 × 26
#>     year month     level  state state_name county  fips  bene_total bene_orig
#>    <int> <chr>     <chr>  <chr> <chr>      <chr>   <chr>      <int>     <int>
#>  1  2013 Year      County GA    Georgia    Lowndes 13185      14991     12192
#>  2  2013 January   County GA    Georgia    Lowndes 13185      14783     12172
#>  3  2013 February  County GA    Georgia    Lowndes 13185      14807     12166
#>  4  2013 March     County GA    Georgia    Lowndes 13185      14851     12172
#>  5  2013 April     County GA    Georgia    Lowndes 13185      14880     12282
#>  6  2013 May       County GA    Georgia    Lowndes 13185      14921     12214
#>  7  2013 June      County GA    Georgia    Lowndes 13185      14949     12137
#>  8  2013 July      County GA    Georgia    Lowndes 13185      15003     12159
#>  9  2013 August    County GA    Georgia    Lowndes 13185      15051     12173
#> 10  2013 September County GA    Georgia    Lowndes 13185      15112     12200
#> # ℹ 121 more rows
#> # ℹ 17 more variables: bene_ma_oth <int>, bene_aged_total <int>,
#> #   bene_aged_esrd <int>, bene_aged_no_esrd <int>, bene_dsb_total <int>,
#> #   bene_dsb_esrd <int>, bene_dsb_no_esrd <int>, bene_ab_total <int>,
#> #   bene_ab_orig <int>, bene_ab_ma_oth <int>, bene_rx_total <int>,
#> #   bene_rx_pdp <int>, bene_rx_mapd <int>, bene_rx_elig <int>,
#> #   bene_rx_full <int>, bene_rx_part <int>, bene_rx_none <int>
…
