Medicare Chronic Conditions APIs • provider
…
Osteoporosis

Schizophrenia and Other Psychotic Disorders

Stroke

Examples

# Specific Chronic Conditions
cc_specific(year = 2018, 
            level = "State", 
            sublevel = "California", 
            demographic = "All")
#> # A tibble: 63 × 13
#>     year level sublevel fips  age_group demographic subdemo condition prevalence
#>    <int> <chr> <chr>    <chr> <chr>     <chr>       <chr>   <chr>          <dbl>
#>  1  2018 State Califor… 06    All       All         All     Alcohol …     0.0215
#>  2  2018 State Califor… 06    All       All         All     Alzheime…     0.105 
#>  3  2018 State Califor… 06    All       All         All     Arthritis     0.312 
#>  4  2018 State Califor… 06    All       All         All     Asthma        0.053 
#>  5  2018 State Califor… 06    All       All         All     Atrial F…     0.0749
#>  6  2018 State Califor… 06    All       All         All     Autism S…     0.0022
#>  7  2018 State Califor… 06    All       All         All     COPD          0.0952
#>  8  2018 State Califor… 06    All       All         All     Cancer        0.0784
#>  9  2018 State Califor… 06    All       All         All     Chronic …     0.243 
#> 10  2018 State Califor… 06    All       All         All     Depressi…     0.162 
#> # ℹ 53 more rows
#> # ℹ 4 more variables: tot_std_pymt_percap <dbl>, tot_pymt_percap <dbl>,
#> #   hosp_readmsn_rate <dbl>, er_visits_per_1k <dbl>

cc_specific(year = 2011, 
            level = "County", 
            fips = "01001")
#> # A tibble: 63 × 13
#>     year level sublevel fips  age_group demographic subdemo condition prevalence
#>    <int> <chr> <chr>    <chr> <chr>     <chr>       <chr>   <chr>          <dbl>
#>  1  2011 Coun… Alabama… 01001 All       All         All     Alcohol …     0.0116
#>  2  2011 Coun… Alabama… 01001 All       All         All     Alzheime…     0.100 
#>  3  2011 Coun… Alabama… 01001 All       All         All     Arthritis     0.274 
#>  4  2011 Coun… Alabama… 01001 All       All         All     Asthma        0.037 
#>  5  2011 Coun… Alabama… 01001 All       All         All     Atrial F…     0.0748
#>  6  2011 Coun… Alabama… 01001 All       All         All     Autism S…    NA     
#>  7  2011 Coun… Alabama… 01001 All       All         All     COPD          0.122 
#>  8  2011 Coun… Alabama… 01001 All       All         All     Cancer        0.0792
#>  9  2011 Coun… Alabama… 01001 All       All         All     Chronic …     0.137 
#> 10  2011 Coun… Alabama… 01001 All       All         All     Depressi…     0.134 
#> # ℹ 53 more rows
#> # ℹ 4 more variables: tot_std_pymt_percap <dbl>, tot_pymt_percap <dbl>,
#> #   hosp_readmsn_rate <dbl>, er_visits_per_1k <dbl>
…
