Medicare Physician & Other Practitioners APIs • provider
…
#npis |> purrr::map_dfr(physician_by_service)
#> Error: <text>:3:21: unexpected ','
#> 2: #npis <- c(1003026055,
#> 3:           1720392988,
#>                        ^

# Retrieve All Provider Data, 2013-2020
purrr::map_dfr(as.character(2013:2020),
~physician_by_service(npi = 1003000126, year = .x))
#> # A tibble: 78 × 29
#>     year npi        entype first_name middle_name last_name credential gender
#>    <int> <chr>      <chr>  <chr>      <chr>       <chr>     <chr>      <chr> 
#>  1  2013 1003000126 I      Ardalan    NA          Enkeshafi MD         M     
#>  2  2013 1003000126 I      Ardalan    NA          Enkeshafi MD         M     
#>  3  2013 1003000126 I      Ardalan    NA          Enkeshafi MD         M     
#>  4  2013 1003000126 I      Ardalan    NA          Enkeshafi MD         M     
#>  5  2013 1003000126 I      Ardalan    NA          Enkeshafi MD         M     
#>  6  2013 1003000126 I      Ardalan    NA          Enkeshafi MD         M     
#>  7  2013 1003000126 I      Ardalan    NA          Enkeshafi MD         M     
#>  8  2014 1003000126 I      Ardalan    NA          Enkeshafi MD         M     
#>  9  2014 1003000126 I      Ardalan    NA          Enkeshafi MD         M     
#> 10  2014 1003000126 I      Ardalan    NA          Enkeshafi MD         M     
#> # ℹ 68 more rows
#> # ℹ 21 more variables: specialty <chr>, street <chr>, city <chr>, state <chr>,
#> #   fips <chr>, zipcode <chr>, ruca <chr>, ruca_desc <chr>, country <chr>,
#> #   par <chr>, hcpcs_cd <chr>, hcpcs_desc <chr>, hcpcs_drug <chr>, pos <chr>,
#> #   tot_benes <int>, tot_srvcs <int>, tot_day <int>, avg_charge <dbl>,
#> #   avg_allowed <dbl>, avg_payment <dbl>, avg_std_pymt <dbl>
…
