…
williams
```

    #> # A tibble: 34 × 3
    #>    provider          organization                                  reassignments
    #>    <glue>            <chr>                                                 <int>
    #>  1 JONATHAN WILLIAMS Emergency Coverage                                      332
    #>  2 JONATHAN WILLIAMS Phoebe Putney Memorial Hospital                         241
    #>  3 JONATHAN WILLIAMS Southland Emergency Medical Services Consoli…           145
    #>  4 JONATHAN WILLIAMS Southland Bainbridge Hospitalist Group                  124
    #>  5 JONATHAN WILLIAMS Southland Consolidated Emergency Services               122
    #>  6 JONATHAN WILLIAMS Crisp Regional Hospital                                 117
    #>  7 JONATHAN WILLIAMS Union County Hospital Authority                         100
    #>  8 JONATHAN WILLIAMS Clinch County Hospital Authority                         93
    #>  9 JONATHAN WILLIAMS Sgmp Southland                                           93
    #> 10 JONATHAN WILLIAMS Hospitalist Medicine Physicians Of GeorgiaTcg            69
    #> # ℹ 24 more rows
…
