Provider Networks • provider
…
williams <- reassignments("1346391299") |>
  mutate(
    provider     = str_glue("{first} {last}"),
    organization = str_squish(
      str_remove_all(
        str_to_title(organization), 
        regex("Llc|Inc| Pc|-|,+|\\.")))) |> 
  select(provider, 
         organization, 
         reassignments) |> 
  arrange(desc(reassignments))

williams

#> # A tibble: 38 × 3
#>    provider          organization                                  reassignments
#>    <glue>            <chr>                                                 <int>
#>  1 JONATHAN WILLIAMS Emergency Coverage Corp                                 272
#>  2 JONATHAN WILLIAMS Phoebe Putney Memorial Hospital                         187
#>  3 JONATHAN WILLIAMS Southland Emergency Medical Services Consoli…           146
#>  4 JONATHAN WILLIAMS Union County Hospital Authority                         113
#>  5 JONATHAN WILLIAMS Southland Bainbridge Hospitalist Group                  112
#>  6 JONATHAN WILLIAMS Sgmp Southland                                          105
#>  7 JONATHAN WILLIAMS Clinch County Hospital Authority                        103
#>  8 JONATHAN WILLIAMS Crisp Regional Hospital                                 100
#>  9 JONATHAN WILLIAMS Southland Consolidated Emergency Services                94
#> 10 JONATHAN WILLIAMS Southland Emergency Medical Services                     84
#> # ℹ 28 more rows
…
