NPPES NPI Public Registry API • provider
…
#provider_promdci(full = TRUE)

Medicare Physician & Other Practitioners - by Provider and
Service API

Medicare
Physician & Other Practitioners - by Provider and Service
API

npi_list |> purrr::map_dfr(provider_mpop)
#> # A tibble: 36 × 30
#>    year  rndrn…¹ rndrn…² rndrn…³ rndrn…⁴ rndrn…⁵ rndrn…⁶ rndrn…⁷ rndrn…⁸ rndrn…⁹
#>    <chr> <chr>   <chr>   <chr>   <chr>   <chr>   <chr>   <chr>   <chr>   <chr>  
#>  1 2020  100302… Phadke  Radhika "P"     M.D, P… F       I       4800 W… Suite …
#>  2 2020  100302… Phadke  Radhika "P"     M.D, P… F       I       4800 W… Suite …
#>  3 2020  100302… Phadke  Radhika "P"     M.D, P… F       I       4800 W… Suite …
#>  4 2020  100302… Phadke  Radhika "P"     M.D, P… F       I       4800 W… Suite …
#>  5 2020  100302… Phadke  Radhika "P"     M.D, P… F       I       4800 W… Suite …
#>  6 2020  100302… Phadke  Radhika "P"     M.D, P… F       I       4800 W… Suite …
#>  7 2020  100302… Phadke  Radhika "P"     M.D, P… F       I       4800 W… Suite …
#>  8 2020  100302… Phadke  Radhika "P"     M.D, P… F       I       4800 W… Suite …
#>  9 2020  172039… Abas    Mustafa ""      M.D.,   M       I       13221 … Ste 12 
#> 10 2020  172039… Abas    Mustafa ""      M.D.,   M       I       13221 … Ste 12 
#> # … with 26 more rows, 20 more variables: rndrng_prvdr_city <chr>,
#> #   rndrng_prvdr_state_abrvtn <chr>, rndrng_prvdr_state_fips <chr>,
#> #   rndrng_prvdr_zip5 <chr>, rndrng_prvdr_ruca <chr>,
#> #   rndrng_prvdr_ruca_desc <chr>, rndrng_prvdr_cntry <chr>,
#> #   rndrng_prvdr_type <chr>, rndrng_prvdr_mdcr_prtcptg_ind <chr>,
#> #   hcpcs_cd <chr>, hcpcs_desc <chr>, hcpcs_drug_ind <chr>,
#> #   place_of_srvc <chr>, tot_benes <dbl>, tot_srvcs <dbl>, …
…
