Open Payments • provider
…
            2023-11-30

      Source: vignettes/articles/open.Rmd
      open.Rmd

library(provider)
library(future)
library(furrr)
library(dplyr)

open_payments(year = 2021, npi = 1043218118, na.rm = TRUE)

#> # A tibble: 109 × 47
#>    program_year npi      covered_recipient first last  address city  state zip  
#>           <int> <chr>    <fct>             <chr> <chr> <chr>   <chr> <ord> <chr>
#>  1         2021 1043218… Physician         Ahad  Maho… 6739 G… Zeph… FL    33542
#>  2         2021 1043218… Physician         AHAD  MAHO… 6739 G… ZEPH… FL    33542
#>  3         2021 1043218… Physician         AHAD  MAHO… 6739 G… ZEPH… FL    33542
#>  4         2021 1043218… Physician         AHAD  MAHO… 6739 G… ZEPH… FL    33542
#>  5         2021 1043218… Physician         AHAD  MAHO… 6739 G… ZEPH… FL    33542
#>  6         2021 1043218… Physician         AHAD  MAHO… 6739 G… ZEPH… FL    33542
#>  7         2021 1043218… Physician         AHAD  MAHO… 6739 G… ZEPH… FL    33542
#>  8         2021 1043218… Physician         AHAD  MAHO… 6739 G… ZEPH… FL    33542
#>  9         2021 1043218… Physician         AHAD  MAHO… 6739 G… ZEPH… FL    33542
#> 10         2021 1043218… Physician         AHAD  MAHO… 6739 G… ZEPH… FL    33542
#> # ℹ 99 more rows
#> # ℹ 38 more variables: country <chr>, primary <chr>, specialty <chr>,
#> #   license_state <ord>, physician_ownership <lgl>, third_party_payment <chr>,
#> #   charity <lgl>, publish_date <date>, publish_delay <lgl>,
#> #   publish_dispute <lgl>, related_product <lgl>, payer_id <chr>,
#> #   payer_sub <chr>, payer_name <chr>, payer_state <ord>, payer_country <chr>,
#> #   pay_form <chr>, pay_nature <chr>, pay_total <dbl>, pay_date <date>, …

plan(multisession, workers = 4)
open  <- open_payments_(npi = 1043218118)
plan(sequential)
open

#> # A tibble: 476 × 53
#>    program_year npi      covered_recipient first last  address city  state zip  
#>           <int> <chr>    <fct>             <chr> <chr> <chr>   <chr> <ord> <chr>
#>  1         2016 1043218… Physician         AHAD  MAHO… 6739 G… ZEPH… FL    33542
#>  2         2016 1043218… Physician         AHAD  MAHO… 6739 G… ZEPH… FL    33542
#>  3         2016 1043218… Physician         AHAD  MAHO… 6739 G… ZEPH… FL    33542
#>  4         2016 1043218… Physician         AHAD  MAHO… 6739 G… ZEPH… FL    33542
#>  5         2016 1043218… Physician         AHAD  MAHO… 6739 G… ZEPH… FL    33542
#>  6         2016 1043218… Physician         AHAD  MAHO… 6739 G… ZEPH… FL    33542
#>  7         2016 1043218… Physician         AHAD  MAHO… 6739 G… ZEPH… FL    33542
#>  8         2016 1043218… Physician         AHAD  MAHO… 6739 G… ZEPH… FL    33542
#>  9         2016 1043218… Physician         AHAD  MAHO… 6739 G… ZEPH… FL    33542
#> 10         2016 1043218… Physician         AHAD  MAHO… 6739 G… ZEPH… FL    33542
#> # ℹ 466 more rows
#> # ℹ 44 more variables: country <chr>, primary <chr>, specialty <chr>,
#> #   license_state <ord>, travel_city <chr>, travel_state <ord>,
#> #   travel_country <chr>, physician_ownership <lgl>, third_party_payment <chr>,
#> #   third_party_name <chr>, third_party_recipient <chr>, charity <lgl>,
#> #   context <chr>, publish_date <date>, publish_delay <lgl>,
#> #   publish_dispute <lgl>, related_product <lgl>, payer_id <chr>, …
…
         pay_form,
         pay_nature,
         pay_total, 
         pay_date, 
         pay_count, 
         row_id, 
         group_id, 
         name, 
         covered,
         type, 
         category, 
         ndc,
         pdi)

#> # A tibble: 476 × 15
#>    program_year payer_name    pay_form pay_nature pay_total pay_date   pay_count
#>           <int> <chr>         <chr>    <chr>          <dbl> <date>         <int>
#>  1         2016 Shire North … In-kind… Food and …     18.8  2016-06-06         1
#>  2         2016 Allergan Inc. In-kind… Food and …    126.   2016-06-09         1
#>  3         2016 Allergan Inc. In-kind… Food and …    127.   2016-10-24         1
#>  4         2016 Sun Pharmace… Cash or… Food and …     16.1  2016-08-31         1
#>  5         2016 CLARITY MEDI… Cash or… Food and …     14.7  2016-01-13         1
#>  6         2016 Ellex, Inc    Cash or… Honoraria    2000    2016-08-16         1
#>  7         2016 Abbott Labor… In-kind… Food and …      8.57 2016-03-11         1
#>  8         2016 Abbott Labor… In-kind… Food and …     NA    2016-03-11        NA
#>  9         2016 Abbott Labor… In-kind… Food and …     NA    2016-03-11        NA
#> 10         2016 Abbott Labor… In-kind… Food and …     NA    2016-03-11        NA
#> # ℹ 466 more rows
#> # ℹ 8 more variables: row_id <int>, group_id <int>, name <chr>, covered <lgl>,
#> #   type <chr>, category <chr>, ndc <chr>, pdi <chr>

open |> 
  count(payer_sub,
        wt = pay_count,
        sort = TRUE)

#> # A tibble: 45 × 2
#>    payer_sub                                              n
#>    <chr>                                              <int>
#>  1 Allergan, Inc.                                        75
#>  2 Allergan Inc.                                         30
#>  3 Alimera Sciences, Inc.                                22
#>  4 Valeant Pharmaceuticals International                 22
#>  5 Bausch & Lomb, a division of Bausch Health US, LLC    19
#>  6 Bausch Health Americas, Inc.                          19
#>  7 Horizon Therapeutics plc                              18
#>  8 Iridex Corporation                                    18
#>  9 Sight Sciences, Inc.                                  18
#> 10 Ivantis, Inc                                          17
#> # ℹ 35 more rows

open |> 
  count(payer_name,
        wt = pay_count,
        sort = TRUE)

#> # A tibble: 42 × 2
#>    payer_name                                             n
#>    <chr>                                              <int>
#>  1 Allergan, Inc.                                        75
#>  2 Bausch & Lomb, a division of Bausch Health US, LLC    38
#>  3 Allergan Inc.                                         30
#>  4 Alimera Sciences, Inc.                                23
#>  5 Valeant Pharmaceuticals North America LLC             22
#>  6 Sun Pharmaceutical Industries Inc.                    19
#>  7 Horizon Therapeutics plc                              18
#>  8 Iridex Corporation                                    18
#>  9 Sight Sciences, Inc.                                  18
#> 10 Ivantis, Inc                                          17
#> # ℹ 32 more rows

open |> 
  count(payer_id,
        wt = pay_count,
        sort = TRUE)

#> # A tibble: 38 × 2
#>    payer_id         n
#>    <chr>        <int>
#>  1 100000000278   105
#>  2 100000226816    38
#>  3 100000151589    24
#>  4 100000056293    23
#>  5 100000005405    22
#>  6 100000010935    22
#>  7 100000131367    18
#>  8 100000131389    18
#>  9 100000136569    18
#> 10 100000231809    17
#> # ℹ 28 more rows
…
