Opt Out Affidavits • provider
…
Be of an eligible type or specialty. Submit an opt-out affidavit to
Medicare. Enter into a private contract with each of your Medicare
patients. This contract will reflect the agreement between you and your
patients that they will pay out of pocket for services, and that nobody
will submit the bill to Medicare for reimbursement. Contact your
Medicare Administrative Contractor (MAC) to see what information you
should include in your opt-out affidavit and private contract.

Examples

(out <- opt_out(last = "Smith"))
#> # A tibble: 176 × 12
#>    npi        first_name last_name specialty   optout_start_date optout_end_date
#>    <chr>      <chr>      <chr>     <chr>       <date>            <date>         
#>  1 1083899611 Harold     Smith     Internal M… 2004-04-01        2024-04-01     
#>  2 1649265760 David      Smith     Maxillofac… 2012-06-25        2024-06-25     
#>  3 1669688156 Kyle       Smith     Oral Surge… 2018-07-23        2024-07-23     
#>  4 1396031431 Lisa       Smith     Clinical P… 2012-10-01        2024-10-01     
#>  5 1295840825 Austin     Smith     Oral Surge… 2017-02-13        2025-02-13     
#>  6 1881761260 Joann      Smith     Psychiatry  2013-03-02        2025-03-02     
#>  7 1134383193 Ashley     Smith     Clinical P… 2011-02-01        2025-02-01     
#>  8 1154467504 Eric       Smith     Clinical P… 2017-07-01        2025-07-01     
#>  9 1518152768 Sally      Smith     Psychiatry  2017-07-05        2023-07-05     
#> 10 1952512188 Melissa    Smith     Clinical P… 2013-04-01        2025-04-01     
#> # ℹ 166 more rows
#> # ℹ 6 more variables: last_updated <date>, order_and_refer <lgl>,
#> #   address <chr>, city <chr>, state <chr>, zip <chr>

Filter to those providers that are eligible to order and refer and
use the order_refer() function to retrieve more information
on their particular eligibilities:

(ord <- opt_out(last = "Smith") |> 
   dplyr::filter(order_and_refer == TRUE) |> 
  dplyr::distinct(npi) |> 
  dplyr::pull(npi) |>
  furrr::future_map(\(x) order_refer(npi = x)) |> 
  purrr::list_rbind() |> 
  dplyr::select(-c(first_name, last_name)))
#> # A tibble: 146 × 5
#>    npi        partb hha   dme   pmd  
#>    <chr>      <lgl> <lgl> <lgl> <lgl>
#>  1 1083899611 TRUE  TRUE  TRUE  TRUE 
#>  2 1649265760 TRUE  TRUE  TRUE  TRUE 
#>  3 1669688156 TRUE  TRUE  TRUE  FALSE
#>  4 1396031431 TRUE  FALSE TRUE  FALSE
#>  5 1295840825 TRUE  TRUE  TRUE  FALSE
#>  6 1881761260 TRUE  TRUE  TRUE  TRUE 
#>  7 1134383193 TRUE  FALSE TRUE  FALSE
#>  8 1154467504 TRUE  FALSE TRUE  FALSE
#>  9 1518152768 TRUE  TRUE  TRUE  TRUE 
#> 10 1952512188 TRUE  FALSE TRUE  FALSE
#> # ℹ 136 more rows
…
