Order and Referring Eligibility • provider
…
By Name, as well as filtering for certain privileges:

order_refer(last_name = "Smith", 
            partb = FALSE,
            hha = TRUE,
            pmd = FALSE)
#> ✖ No results for last_name: Smith, partb: N, hha: Y, and pmd: N

order_refer(last_name = "Smith", 
            partb = FALSE,
            hha = FALSE,
            pmd = FALSE)
#> # A tibble: 150 × 7
#>    npi        first_name last_name partb hha   dme   pmd  
#>    <chr>      <chr>      <chr>     <lgl> <lgl> <lgl> <lgl>
#>  1 1063535672 AARON      SMITH     FALSE FALSE TRUE  FALSE
#>  2 1891210431 ALAINA     SMITH     FALSE FALSE TRUE  FALSE
#>  3 1962830570 ALESHA     SMITH     FALSE FALSE TRUE  FALSE
#>  4 1922655521 ALLISON    SMITH     FALSE FALSE TRUE  FALSE
#>  5 1942778188 ALYSSA     SMITH     FALSE FALSE TRUE  FALSE
#>  6 1467902791 AMANDA     SMITH     FALSE FALSE TRUE  FALSE
#>  7 1992203582 AMANDA     SMITH     FALSE FALSE TRUE  FALSE
#>  8 1023475761 AMY        SMITH     FALSE FALSE TRUE  FALSE
#>  9 1609219773 AMY        SMITH     FALSE FALSE TRUE  FALSE
#> 10 1063878056 ANNA       SMITH     FALSE FALSE TRUE  FALSE
#> # ℹ 140 more rows
…
