Provider Analysis • provider
…
HCPCS Utilization Data

srvc <- map_dfr(pop_years(), ~by_service(year = .x, npi = 1023076643))

srvc
#> # A tibble: 30 × 32
#>     year npi        level first middle last  gender credential specialty address
#>    <int> <chr>      <chr> <chr> <chr>  <chr> <chr>  <chr>      <chr>     <chr>  
#>  1  2013 1023076643 Prov… John  N      Henry M      PAC        Physicia… 777 No…
#>  2  2013 1023076643 Prov… John  N      Henry M      PAC        Physicia… 777 No…
#>  3  2013 1023076643 Prov… John  N      Henry M      PAC        Physicia… 777 No…
#>  4  2013 1023076643 Prov… John  N      Henry M      PAC        Physicia… 777 No…
#>  5  2014 1023076643 Prov… John  N      Henry M      PAC        Physicia… 1 Medi…
#>  6  2014 1023076643 Prov… John  N      Henry M      PAC        Physicia… 1 Medi…
#>  7  2014 1023076643 Prov… John  N      Henry M      PAC        Physicia… 1 Medi…
#>  8  2014 1023076643 Prov… John  N      Henry M      PAC        Physicia… 1 Medi…
#>  9  2015 1023076643 Prov… John  N      Henry M      PAC        Physicia… 1 Medi…
#> 10  2015 1023076643 Prov… John  N      Henry M      PAC        Physicia… 1 Medi…
#> # ℹ 20 more rows
#> # ℹ 22 more variables: city <chr>, state <chr>, zip <chr>, fips <chr>,
#> #   ruca <chr>, country <chr>, par <lgl>, hcpcs_code <chr>, hcpcs_desc <chr>,
#> #   category <chr>, subcategory <chr>, family <chr>, procedure <chr>,
#> #   drug <lgl>, pos <chr>, tot_benes <int>, tot_srvcs <int>, tot_day <int>,
#> #   avg_charge <dbl>, avg_allowed <dbl>, avg_payment <dbl>, avg_std_pymt <dbl>

hcpcs <- compare_hcpcs(srvc)

hcpcs
#> # A tibble: 90 × 14
#>     year level    hcpcs_code pos   category subcategory         family procedure
#>    <int> <fct>    <chr>      <chr> <chr>    <chr>               <chr>  <chr>    
#>  1  2013 Provider 93010      F     Test     Cardiography        Elect… Non-proc…
#>  2  2013 Provider 93016      F     Test     Cardiography        Elect… Non-proc…
#>  3  2013 Provider 99214      F     E&M      Office/Outpatient … Offic… Non-proc…
#>  4  2013 Provider 99215      F     E&M      Office/Outpatient … Offic… Non-proc…
#>  5  2014 Provider 93010      F     Test     Cardiography        Elect… Non-proc…
#>  6  2014 Provider 93016      F     Test     Cardiography        Elect… Non-proc…
#>  7  2014 Provider 99214      F     E&M      Office/Outpatient … Offic… Non-proc…
#>  8  2014 Provider 99215      F     E&M      Office/Outpatient … Offic… Non-proc…
#>  9  2015 Provider 93010      F     Test     Cardiography        Elect… Non-proc…
#> 10  2015 Provider 93016      F     Test     Cardiography        Elect… Non-proc…
#> # ℹ 80 more rows
#> # ℹ 6 more variables: beneficiaries <dbl>, services <dbl>, avg_charge <dbl>,
#> #   avg_allowed <dbl>, avg_payment <dbl>, avg_std_pymt <dbl>
…
