Physician by Provider • provider
…
    chronic_kidney_disease = bene_cc_ckd,
    copd = bene_cc_copd,
    depression = bene_cc_dep,
    diabetes = bene_cc_diab,
    hyperlipidemia = bene_cc_hplip,
    hypertension = bene_cc_hpten,
    heart_disease = bene_cc_ihd,
    osteoporosis = bene_cc_opo,
    arthritis = bene_cc_raoa,
    schizophrenia_psychotic = bene_cc_sz,
    stroke = bene_cc_strk) |> 
  tidyr::pivot_longer(!year, 
                      names_to = "group", 
                      values_to = "percentage")
#> # A tibble: 136 × 3
#>     year group                  percentage
#>    <int> <chr>                       <dbl>
#>  1  2014 hcc_risk_avg                 1.66
#>  2  2014 atrial_fibrillation          0.29
#>  3  2014 alzheimers_dementia          0.1 
#>  4  2014 asthma                       0.1 
#>  5  2014 cancer                       0.12
#>  6  2014 heart_failure                0.4 
#>  7  2014 chronic_kidney_disease       0.43
#>  8  2014 copd                         0.19
#>  9  2014 depression                   0.3 
#> 10  2014 diabetes                     0.43
#> # ℹ 126 more rows
…
