Get started with provider • provider
…
CCN: A CMS Certification Number is a standardized
sequence of alphanumeric characters that uniquely identify health care
providers and suppliers who interact with the Medicare and Medicaid
programs. Providers and suppliers paid under Medicare Part A have a 6
digit CCN. Suppliers paid by Part B carriers have a 10-digit CCN.

Taxonomy Code: A NUCC Healthcare Taxonomy Code is
a.

Provider Type Code: A Medicare Provider Type Code is
a.

provider::provider_type_code
#> # A tibble: 305 × 5
#>    code  type  type_description spec  spec_description                          
#>    <chr> <chr> <chr>            <chr> <chr>                                     
#>  1 00-00 00    PART A PROVIDER  00    RELIGIOUS NON-MEDICAL HEALTH CARE INSTITU…
#>  2 00-01 00    PART A PROVIDER  01    COMMUNITY MENTAL HEALTH CENTER            
#>  3 00-02 00    PART A PROVIDER  02    COMPREHENSIVE OUTPATIENT REHABILITATION F…
#>  4 00-03 00    PART A PROVIDER  03    END-STAGE RENAL DISEASE FACILITY (ESRD)   
#>  5 00-04 00    PART A PROVIDER  04    FEDERALLY QUALIFIED HEALTH CENTER (FQHC)  
#>  6 00-05 00    PART A PROVIDER  05    HISTOCOMPATIBILITY LABORATORY             
#>  7 00-06 00    PART A PROVIDER  06    HOME HEALTH AGENCY                        
#>  8 00-08 00    PART A PROVIDER  08    HOSPICE                                   
#>  9 00-09 00    PART A PROVIDER  09    HOSPITAL                                  
#> 10 00-10 00    PART A PROVIDER  10    INDIAN HEALTH SERVICES FACILITY           
#> # ℹ 295 more rows
…
