Quality Payment Program • provider
…
Special Statuses

select(q, year, statuses) |> 
  unnest(statuses)

#> # A tibble: 32 × 2
#>     year category          
#>    <int> <fct>             
#>  1  2017 Quality Bonus     
#>  2  2017 Small Practitioner
#>  3  2018 Quality Bonus     
#>  4  2018 Engaged           
#>  5  2018 Small Practitioner
#>  6  2018 Quality Bonus     
#>  7  2018 Engaged           
#>  8  2018 Small Practitioner
#>  9  2018 Quality Bonus     
#> 10  2018 Engaged           
#> # ℹ 22 more rows
…
Individual Category Measures

select(q, year, measures) |> 
  unnest(measures)

#> # A tibble: 70 × 4
#>     year measure                id       score
#>    <int> <fct>                  <chr>    <dbl>
#>  1  2017 Quality                111        5.5
#>  2  2017 Quality                110        3.7
#>  3  2017 Quality                138        3  
#>  4  2017 Quality                265        3  
#>  5  2017 Quality                47         3  
#>  6  2017 Quality                137        3  
#>  7  2017 Improvement Activities IA_BE_6   40  
#>  8  2017 Improvement Activities IA_AHE_1  40  
#>  9  2017 Cost                   TPCC_1     4.6
#> 10  2018 Quality                431        8.9
#> # ℹ 60 more rows
…
