Searching the NPPES • provider
…
#> # A tibble: 4 × 3
#>   datetime            outcome data_lists      
#>   <dttm>              <chr>   <list>          
#> 1 2022-11-20 23:45:58 results <df [1 × 11]>   
#> 2 2022-11-20 23:46:00 results <df [1 × 11]>   
#> 3 2022-11-20 23:46:01 Errors  <tibble [1 × 2]>
#> 4 2022-11-20 23:46:02 results <df [1 × 11]>

Unpacking the response is similar, adding only dplyr’s
group_split() function to the chain. The parameter entered
into group_split() must be search.

npi_list_resp |> dplyr::group_split(outcome) |> 
                 purrr::map_dfr(provider_unpack)
#> # A tibble: 33 × 42
#>    npi    prov_…¹ organ…² organ…³ enume…⁴ last_…⁵ certi…⁶ status autho…⁷ autho…⁸
#>    <chr>  <chr>   <chr>   <chr>   <chr>   <chr>   <chr>   <chr>  <chr>   <chr>  
#>  1 16597… Deacti… NA      NA      NA      NA      NA      NA     NA      NA     
#>  2 13364… Organi… LUMINU… NO      2012-0… 2020-0… 2020-0… A      Laurel  Gamage 
#>  3 13364… Organi… LUMINU… NO      2012-0… 2020-0… 2020-0… A      Laurel  Gamage 
#>  4 17109… Indivi… NA      NA      2005-1… 2007-0… NA      A      NA      NA     
#>  5 17109… Indivi… NA      NA      2005-1… 2007-0… NA      A      NA      NA     
#>  6 17109… Indivi… NA      NA      2005-1… 2007-0… NA      A      NA      NA     
#>  7 17109… Indivi… NA      NA      2005-1… 2007-0… NA      A      NA      NA     
#>  8 17109… Indivi… NA      NA      2005-1… 2007-0… NA      A      NA      NA     
#>  9 17109… Indivi… NA      NA      2005-1… 2007-0… NA      A      NA      NA     
#> 10 17109… Indivi… NA      NA      2005-1… 2007-0… NA      A      NA      NA     
#> # … with 23 more rows, 32 more variables:
#> #   authorized_official_middle_name <chr>,
#> #   authorized_official_telephone_number <chr>,
#> #   authorized_official_title_or_position <chr>,
#> #   authorized_official_name_prefix <chr>, first_name <chr>, last_name <chr>,
#> #   middle_name <chr>, credential <chr>, sole_proprietor <lgl>, gender <chr>,
#> #   name_prefix <chr>, name_suffix <chr>, country_code <chr>, …
…
We can even chain the search and unpack function chains together
using |>, R’s lovely pipe. Again, the
group_split() input should be the column containing the
NPIs.

Split and purrr, then split and purrr:

npi_df_resp <- npi_df |> tibble::deframe() |> 
                         purrr::map_dfr(provider_nppes) |> 
                         dplyr::group_split(outcome) |> 
                         purrr::map_dfr(provider_unpack)

#> # A tibble: 33 × 42
#>    npi    prov_…¹ organ…² organ…³ enume…⁴ last_…⁵ certi…⁶ status autho…⁷ autho…⁸
#>    <chr>  <chr>   <chr>   <chr>   <chr>   <chr>   <chr>   <chr>  <chr>   <chr>  
#>  1 16597… Deacti… NA      NA      NA      NA      NA      NA     NA      NA     
#>  2 13364… Organi… LUMINU… NO      2012-0… 2020-0… 2020-0… A      Laurel  Gamage 
#>  3 13364… Organi… LUMINU… NO      2012-0… 2020-0… 2020-0… A      Laurel  Gamage 
#>  4 17109… Indivi… NA      NA      2005-1… 2007-0… NA      A      NA      NA     
#>  5 17109… Indivi… NA      NA      2005-1… 2007-0… NA      A      NA      NA     
#>  6 17109… Indivi… NA      NA      2005-1… 2007-0… NA      A      NA      NA     
#>  7 17109… Indivi… NA      NA      2005-1… 2007-0… NA      A      NA      NA     
#>  8 17109… Indivi… NA      NA      2005-1… 2007-0… NA      A      NA      NA     
#>  9 17109… Indivi… NA      NA      2005-1… 2007-0… NA      A      NA      NA     
#> 10 17109… Indivi… NA      NA      2005-1… 2007-0… NA      A      NA      NA     
#> # … with 23 more rows, 32 more variables:
#> #   authorized_official_middle_name <chr>,
#> #   authorized_official_telephone_number <chr>,
#> #   authorized_official_title_or_position <chr>,
#> #   authorized_official_name_prefix <chr>, first_name <chr>, last_name <chr>,
#> #   middle_name <chr>, credential <chr>, sole_proprietor <lgl>, gender <chr>,
#> #   name_prefix <chr>, name_suffix <chr>, country_code <chr>, …
…
